q	r100	r125	r150	r175	r200	r250	r300	r350	r400	r500
14	0.104912708	0.23362204	0.373908021	0.47646095	0.520249695	0.555903614	0.605467307	0.592609083	0.701427003	0.680453636
15	0.023737989	0.121671427	0.247274565	0.318405243	0.381851401	0.403614458	0.477650536	0.447907391	0.528540066	0.514342895
16	0.003410475	0.067216438	0.149014512	0.198798471	0.234774665	0.298072289	0.322866642	0.367319679	0.445115258	0.404269513
17	0	0.037731503	0.115515125	0.164063353	0.1840743	0.211084337	0.236424086	0.295636687	0.30845225	0.281521014
18	0.012017864	0.025292546	0.066132409	0.081048607	0.12774056	0.150843373	0.214259328	0.221727516	0.273326015	0.249499666
19	0.011909595	0	0.019276587	0.056581103	0.09089525	0.116626506	0.174362763	0.178984862	0.205268935	0.206137425
20	0.042766274	0.007325164	0.000577576	0.022938285	0.057095006	0.068915663	0.155892132	0.113089938	0.184961581	0.160773849
21	0.067992963	0.012715378	0	0	0.004415347	0.033253012	0.109715552	0.053428317	0.122941822	0.140760507
22	0.123886859	0.047820879	0.016605299	0.004369197	0.028775883	0.005542169	0.099741411	0.074799644	0.118551043	0.106070714
23	0.197185005	0.113378789	0.051332034	0.005898416	0	0	0.016992981	0.02983081	0.035675082	0.075383589
24	0.279523616	0.164102092	0.08389286	0.034735117	0.034713764	0.000963855	0.024381234	0.017809439	0.047200878	0.066044029
25	0.383245365	0.258361743	0.153418526	0.064117968	0.028775883	0.000722892	0	0	0	0
