var	r100	r200	r300	r500	r100inv	r200inv	r300inv	r500inv
0	0.92326	0.983317	0.993485	0.997366	0.07674	0.016683	0.006515	0.002634
0.01	0.926196	0.984016	0.993671	0.997377	0.073804	0.015984	0.006329	0.002623
0.02	0.926757	0.984163	0.993747	0.997389	0.073243	0.015837	0.006253	0.002611
0.03	0.926911	0.984255	0.993748	0.997378	0.073089	0.015745	0.006252	0.002622
0.05	0.927107	0.984279	0.993742	0.997381	0.072893	0.015721	0.006258	0.002619
0.07	0.927222	0.984333	0.993741	0.997383	0.072778	0.015667	0.006259	0.002617
0.1	0.927338	0.984384	0.99377	0.997389	0.072662	0.015616	0.00623	0.002611
0.15	0.927425	0.984401	0.993805	0.997388	0.072575	0.015599	0.006195	0.002612
0.2	0.927491	0.984427	0.993811	0.997387	0.072509	0.015573	0.006189	0.002613
0.25	0.927545	0.98445	0.993778	0.997392	0.072455	0.01555	0.006222	0.002608
0.3	0.927545	0.984423	0.993776	0.997396	0.072455	0.015577	0.006224	0.002604
0.35	0.927565	0.984393	0.993765	0.9974	0.072435	0.015607	0.006235	0.0026
0.4	0.927479	0.984428	0.993771	0.99739	0.072521	0.015572	0.006229	0.00261
0.45	0.927459	0.984441	0.993758	0.9974	0.072541	0.015559	0.006242	0.0026
0.5	0.927362	0.984382	0.993742	0.997394	0.072638	0.015618	0.006258	0.002606
0.6	0.927294	0.984391	0.993742	0.997383	0.072706	0.015609	0.006258	0.002617
0.7	0.927179	0.98436	0.993718	0.997372	0.072821	0.01564	0.006282	0.002628
0.8	0.927066	0.984343	0.993724	0.99738	0.072934	0.015657	0.006276	0.00262
0.9	0.926933	0.984288	0.9937	0.997379	0.073067	0.015712	0.0063	0.002621
1	0.926738	0.984287	0.993694	0.997381	0.073262	0.015713	0.006306	0.002619
