pre	sel1	sel2	sel3	sel4	sel5	sel6	se
1	0.967994	0.966159	0.961952	0.957277	0.953682	0.951125	0.936966
2	0.942664	0.94073	0.936866	0.932707	0.929228	0.926447	0.919981
3	0.902598	0.899937	0.896627	0.893209	0.89045	0.888079	0.889002
4	0.850625	0.848287	0.844251	0.841485	0.83914	0.837277	0.845236
5	0.788098	0.785785	0.782316	0.779281	0.777457	0.775887	0.787395
6	0.719359	0.716491	0.71474	0.711776	0.709967	0.70881	0.720242
