rlng	bwa	bwaedit	bwasw	vatram	vatramnovar	bowtie2	mrsfast
100	0.0162132	0.00960073	0.042232	0.017158	0.0164561	0.00597659	0.0016906
150	0.00928263	0.00186343	0.0299199	0.00533072	0.00469908	0.00162487	0.000553627
200	0.00838096	0.000838496	0.0263108	0.0034538	0.00292675	0.000916356	0.000355362
300	0.00840649	0.000487072	0.02454	0.00170174	0.00210463	0.000481058	0.000261575
400	0.00809402	0.000370627	0.0244734	0.0014586	0.00162199	0.000378598	0.000187306
500	0.00777827	0.000275337	0.0241805	0.00160286	0.00103251	0.000250753	nan
