Artifical Variants
ARTIFICAL VARIANTS
variant probability; addVariants; Read Length; LSH build time (s); Search time per Read (ns); Time LSH per Read (ns); Time Aligner per Read (ns); LSH memory usage (GB); Correct Intersection Found; Correct Interval Found; Correct Alignment Found; Wrong Intervals per Read; Columns per Read; Extra alignment calculation factor; No Interval Found;
0.1;0;100;211;18138;85800;534166;8.84169;0.934637;0.924198;0.87565;14.477;3800.62;38.0062;8e-06;
0.1;0;150;181;28208;133999;813499;9.16199;0.973314;0.969733;0.91709;12.6239;4851.07;32.3404;0;
0.1;0;200;194;37590;191002;989855;9.3997;0.986942;0.985016;0.94228;10.2592;5200.02;26.0001;0;
0.1;0;300;220;60376;330898;1373334;9.8709;0.995716;0.994362;0.96355;6.86806;5316.51;17.7217;0;
0.1;0;500;278;123239;698778;2518247;10.7516;0.998822;0.997495;0.9854;3.14816;4757.58;9.51517;0;
0.1;1;100;177;17431;81006;509163;8.84078;0.927259;0.916482;0.9079;14.9983;3935.59;39.3559;1e-05;
0.1;1;150;194;28329;133520;817483;9.15824;0.970512;0.966749;0.95248;13.2449;5092.29;33.9486;0;
0.1;1;200;210;37718;191697;971163;9.39443;0.985781;0.98389;0.97549;10.8606;5499.15;27.4957;0;
0.1;1;300;246;64916;332523;1585990;9.86332;0.995396;0.994103;0.98873;7.41155;5689.67;18.9656;0;
0.1;1;500;310;122637;703002;2353698;10.7422;0.998804;0.997518;0.99729;3.44639;5079.03;10.1581;0;
0.15;0;100;192;32890;81730;1727523;8.84169;0.933329;0.922618;0.84851;14.5254;3814.18;38.1418;1.3e-05;
0.15;0;150;181;29647;131927;930689;9.16199;0.972317;0.9685;0.9014;12.7757;4909.9;32.7327;0;
0.15;0;200;194;38233;188857;1031443;9.3997;0.986572;0.984636;0.9213;10.332;5238.56;26.1928;0;
0.15;0;300;224;63851;330323;1533388;9.8709;0.99558;0.99424;0.94628;6.9761;5390.09;17.967;0;
0.15;0;500;280;124452;698947;2466442;10.7516;0.998706;0.997399;0.97141;3.217;4842.7;9.68541;0;
0.15;1;100;176;17991;81931;523821;8.84067;0.928057;0.917245;0.90503;14.9507;3924.81;39.2481;1e-05;
0.15;1;150;195;28772;132684;858936;9.15829;0.970735;0.966857;0.95807;13.2657;5102.12;34.0141;0;
0.15;1;200;210;37791;190421;966031;9.39437;0.985975;0.984077;0.9757;10.7732;5460.28;27.3014;0;
0.15;1;300;245;63197;331786;1508961;9.8632;0.995499;0.99422;0.98689;7.37817;5667.38;18.8913;0;
0.15;1;500;307;122208;703865;2227585;10.7421;0.998803;0.99754;0.99323;3.42131;5057.94;10.1159;0;
0.2;0;100;212;38920;87229;2173304;8.84169;0.931897;0.92084;0.83069;14.603;3833.54;38.3354;1.1e-05;
0.2;0;150;183;29035;132020;876431;9.16199;0.971538;0.967695;0.88332;12.8693;4944.13;32.9609;0;
0.2;0;200;195;40271;189453;1111231;9.3997;0.986496;0.984589;0.90031;10.4594;5301.38;26.5069;0;
0.2;0;300;226;65857;328952;1597414;9.8709;0.995315;0.993973;0.93232;7.09409;5474.59;18.2486;0;
0.2;0;500;280;127982;694826;2745882;10.7516;0.998718;0.997306;0.96592;3.29511;4940.67;9.88133;0;
0.2;1;100;175;18128;80739;519527;8.84079;0.92899;0.917965;0.90861;14.9254;3918.73;39.1873;8e-06;
0.2;1;150;195;28385;132942;787011;9.15835;0.970949;0.967058;0.96187;13.2224;5085.21;33.9014;0;
0.2;1;200;209;37732;190346;970619;9.39443;0.986676;0.984784;0.97263;10.7677;5458.35;27.2917;0;
0.2;1;300;244;62908;332320;1363618;9.86338;0.995608;0.994339;0.9923;7.33349;5637.08;18.7903;0;
0.2;1;500;320;128425;706308;2702429;10.7422;0.998882;0.997529;1.0014;3.40454;5049.7;10.0994;0;
0.25;0;100;251;40700;86487;2273379;8.84169;0.930271;0.918947;0.81382;14.648;3845.76;38.4576;1.8e-05;
0.25;0;150;185;31444;134629;894596;9.16199;0.971094;0.967115;0.85325;12.9716;4984.57;33.2304;0;
0.25;0;200;198;39589;189547;1101753;9.3997;0.985962;0.984011;0.88729;10.5466;5344.82;26.7241;0;
0.25;0;300;226;66636;327719;1735384;9.8709;0.995306;0.993995;0.91315;7.16449;5519.43;18.3981;0;
0.25;0;500;279;134231;691943;3296374;10.7516;0.998658;0.99741;0.94753;3.34544;4994.69;9.98937;0;
0.25;1;100;178;18006;81425;520222;8.84073;0.929495;0.918457;0.90748;14.8558;3901.86;39.0186;1.2e-05;
0.25;1;150;195;28253;131095;816574;9.15838;0.971674;0.967796;0.95526;13.1757;5069.49;33.7966;0;
0.25;1;200;211;38022;189587;974310;9.39446;0.98672;0.984839;0.98326;10.691;5422.33;27.1117;0;
0.25;1;300;248;63031;331544;1417198;9.86326;0.995906;0.994675;0.99098;7.25459;5580.43;18.6014;0;
0.25;1;500;318;127367;700993;2619214;10.7421;0.998992;0.997781;0.99886;3.35324;4982.26;9.96453;0;
0.3;0;100;249;40758;100834;2140092;8.84169;0.928564;0.916936;0.79751;14.6791;3853.86;38.5386;1.8e-05;
0.3;0;150;184;29014;131807;888486;9.16199;0.969938;0.965821;0.82946;13.1043;5033.58;33.5572;0;
0.3;0;200;208;39832;187022;1133535;9.3997;0.985647;0.983703;0.86636;10.6381;5391.87;26.9593;0;
0.3;0;300;223;66698;328656;1731445;9.8709;0.995029;0.993635;0.89253;7.31826;5624.67;18.7489;0;
0.3;0;500;283;146560;693558;4191295;10.7516;0.99866;0.997294;0.9249;3.39999;5045.26;10.0905;0;
0.3;1;100;178;18336;82394;536102;8.84073;0.930374;0.919292;0.90588;14.7905;3886;38.86;1.3e-05;
0.3;1;150;196;28168;132942;794189;9.15832;0.971893;0.968043;0.95622;13.192;5076.47;33.8431;0;
0.3;1;200;216;39151;189284;973848;9.39437;0.987028;0.985242;0.98464;10.6327;5396.97;26.9848;0;
0.3;1;300;249;61880;329623;1400471;9.86336;0.99597;0.994636;0.99223;7.24621;5574.47;18.5816;0;
0.3;1;500;319;143592;700897;3515360;10.7422;0.99911;0.997788;0.99351;3.30048;4910.86;9.82173;0;
0.35;0;100;258;26022;124237;667906;8.84169;0.926032;0.91432;0.78105;14.7613;3874.86;38.7486;2e-05;
0.35;0;150;186;29519;131718;914649;9.16199;0.969305;0.965156;0.81625;13.1937;5068.67;33.7912;1e-06;
0.35;0;200;194;39919;187849;1157730;9.3997;0.985192;0.983143;0.83742;10.7748;5455.61;27.278;0;
0.35;0;300;226;66780;330089;1786286;9.8709;0.995006;0.993668;0.86889;7.42718;5701.53;19.0051;0;
0.35;0;500;286;134523;686645;3266249;10.7516;0.998674;0.997357;0.906;3.47567;5137.57;10.2751;0;
0.35;1;100;177;18053;80883;513262;8.84075;0.93026;0.919312;0.90811;14.773;3882.02;38.8202;1.3e-05;
0.35;1;150;199;28040;132006;783053;9.15848;0.972249;0.968465;0.9658;13.1341;5055.86;33.7057;0;
0.35;1;200;218;37202;189213;946387;9.39461;0.987329;0.985448;0.97599;10.6208;5388.8;26.944;0;
0.35;1;300;252;63808;331157;1476680;9.86329;0.996216;0.99498;0.99064;7.20861;5550.06;18.5002;0;
0.35;1;500;315;159022;781959;4267938;10.7422;0.999198;0.997961;0.99299;3.2875;4900.38;9.80076;0;
0.4;0;100;258;32081;88939;1473433;8.84169;0.925326;0.913347;0.76439;14.8276;3892.14;38.9214;2.2e-05;
0.4;0;150;186;30476;132214;983020;9.16199;0.968851;0.964548;0.79308;13.2558;5093.92;33.9594;0;
0.4;0;200;203;44222;184297;1207171;9.3997;0.984671;0.982648;0.82009;10.8393;5488.72;27.4436;0;
0.4;0;300;227;68887;326370;1902232;9.8709;0.994817;0.99348;0.84841;7.50959;5758.14;19.1938;0;
0.4;0;500;292;148585;692189;4199827;10.7516;0.998565;0.997237;0.88386;3.55171;5224.17;10.4483;0;
0.4;1;100;177;17671;81630;505422;8.84078;0.931137;0.92012;0.91124;14.7449;3875.23;38.7523;1.9e-05;
0.4;1;150;215;28271;130814;793789;9.15843;0.972832;0.969043;0.96415;13.0652;5031.29;33.5419;0;
0.4;1;200;219;39373;187723;965194;9.39445;0.987527;0.985687;0.98024;10.5387;5351.27;26.7563;0;
0.4;1;300;266;68044;331121;1428694;9.86335;0.996329;0.99507;0.99669;7.12722;5491.07;18.3036;0;
0.4;1;500;322;136128;702128;3090820;10.7422;0.999179;0.99792;0.99591;3.25583;4866.9;9.7338;0;
0.45;0;100;240;36935;85854;2004799;8.84169;0.923057;0.910796;0.74542;14.8461;3897.34;38.9734;1.5e-05;
0.45;0;150;184;30682;133608;999165;9.16199;0.967711;0.963251;0.76988;13.3688;5136.37;34.2425;0;
0.45;0;200;202;41625;186582;1257453;9.3997;0.984477;0.982412;0.79836;11.0004;5568.06;27.8403;0;
0.45;0;300;230;71149;327038;2050965;9.8709;0.994783;0.99344;0.82541;7.6479;5854.92;19.5164;0;
0.45;0;500;291;291533;1743629;5298707;10.7516;0.998589;0.997203;0.8582;3.63691;5312.08;10.6242;0;
0.45;1;100;198;19251;79980;574537;8.84074;0.931532;0.920507;0.90922;14.6877;3861.72;38.6172;9e-06;
0.45;1;150;201;28254;131319;785207;9.15836;0.972824;0.968942;0.96546;13.0412;5022.93;33.4862;0;
0.45;1;200;216;39732;186513;1025445;9.3945;0.987881;0.986063;0.98326;10.538;5352.88;26.7644;0;
0.45;1;300;261;66798;322501;1625967;9.86332;0.9966;0.995341;0.99665;7.11211;5483.27;18.2776;0;
0.45;1;500;329;155675;663597;4641704;10.7421;0.999279;0.997921;0.99759;3.22328;4815.2;9.6304;0;
0.5;0;100;289;36041;83006;2005145;8.84169;0.921129;0.908779;0.73003;14.8882;3907.87;39.0787;2e-05;
0.5;0;150;186;31717;133465;1029460;9.16199;0.966781;0.96235;0.75458;13.4846;5179.32;34.5288;0;
0.5;0;200;203;42404;185468;1346947;9.3997;0.984125;0.982027;0.77183;11.1058;5622.09;28.1104;0;
0.5;0;300;228;77491;323287;2473766;9.8709;0.994604;0.993275;0.80066;7.76254;5936.85;19.7895;0;
0.5;0;500;294;155013;659848;5013204;10.7516;0.998552;0.997155;0.83527;3.65319;5344.71;10.6894;0;
0.5;1;100;201;20620;82385;625325;8.84066;0.932069;0.921092;0.91074;14.6373;3849.08;38.4908;1e-05;
0.5;1;150;208;30954;129873;948159;9.15835;0.973375;0.969654;0.96342;13.0141;5011.77;33.4118;0;
0.5;1;200;237;37660;187782;948814;9.39453;0.988403;0.986579;0.98094;10.4967;5335.04;26.6752;0;
0.5;1;300;252;70589;322357;1782180;9.8633;0.996718;0.995491;0.99581;7.06666;5454.11;18.1804;0;
0.5;1;500;315;156346;684965;4887009;10.7423;0.999373;0.998071;1.0016;3.13652;4730.82;9.46163;0;
