Paired vs Single, with variants
q = 17
gapString = ################################################################
winSize = 140
winOff = 125
sigLng = 36
bandSize = 1
limit = 3
limitSkip = 3
minCountSelection = 2
minCountPrefiltering = 1
maxSelect = 64
nextFactor = 4
contractBandMultiplicator = 0.3
extendBandMultiplicator = 0.3
extendFactor = 0.43
alignerMaxReturnedWindows = 1000
alignerMaxErrorLow = 4
alignerMaxClipLow = 0
alignerMaxErrorHigh = 10
alignerMaxClipHigh = 0
alignerMaxSelect = 16
alignerNextFactor = 2
variantProbabilityThreshold = 0.2
ORIGINAL
Read Length; LSH build time (s); Search time per Read (ns); Time LSH per Read (ns); Time Aligner per Read (ns); LSH memory usage (GB); Correct Intersection Found; Correct Interval Found; Correct Alignment Found; Wrong Intervals per Read; Columns per Read; Extra alignment calculation factor; No Interval Found;
100;166;119445;217939;270741;8.83985;0.97686;0.96731;0.95842;5.26156;1487.78;14.8778;0;
100;163;93770;80167;457288;8.83985;0.93348;0.9218;0.91162;14.7153;3854.64;38.5464;0;

PE-DISTANCE
min-pe-distance;max-pe-distance; Read Length; LSH build time (s); Search time per Read (ns); Time LSH per Read (ns); Time Aligner per Read (ns); LSH memory usage (GB); Correct Intersection Found; Correct Interval Found; Correct Alignment Found; Wrong Intervals per Read; Columns per Read; Extra alignment calculation factor; No Interval Found;
250;250;100;163;157296;230676;415053;8.83985;0.91219;0.90501;0.89436;7.16599;1935.67;19.3567;0;
200;300;100;;149048;230284;397688;8.83985;0.91514;0.90768;0.89739;7.06883;1911.46;19.1146;0;
150;350;100;;147995;233062;394646;8.83985;0.92116;0.91342;0.90335;6.86772;1862.21;18.6221;0;
100;400;100;;138357;233885;352520;8.83985;0.94895;0.94069;0.93094;6.07352;1680.44;16.8044;0;
0;500;100;;111357;213641;265212;8.83985;0.97531;0.96597;0.95695;5.29353;1495.34;14.9534;0;
18446744073709550866;1250;100;;131489;204828;390131;8.83985;0.90994;0.90322;0.8927;7.14158;1927.9;19.279;0;
350;350;100;;135053;205185;388054;8.83985;0.9103;0.90356;0.89299;7.12608;1924.07;19.2407;0;
300;400;100;;123514;205335;332623;8.83985;0.94371;0.93617;0.92619;6.15365;1698.86;16.9886;0;
250;450;100;;107636;205902;289931;8.83985;0.95998;0.95157;0.94224;5.65719;1579.52;15.7952;0;
200;500;100;;105986;205865;260851;8.83985;0.97528;0.96594;0.95695;5.27925;1491.77;14.9177;0;
100;600;100;;117386;205803;277221;8.83985;0.97669;0.96718;0.95829;5.25474;1486.01;14.8601;0;
18446744073709550966;1350;100;;157558;208049;415961;8.83985;0.90994;0.90322;0.8927;7.14158;1927.9;19.279;0;
450;450;100;;130328;206446;388086;8.83985;0.9103;0.90356;0.89317;7.12495;1923.8;19.238;0;
400;500;100;;135532;208491;344571;8.83985;0.93624;0.92839;0.91867;6.37181;1745.93;17.4593;0;
350;550;100;;118239;222508;281215;8.83985;0.96514;0.95668;0.94749;5.53881;1553.6;15.536;0;
300;600;100;;110078;234289;274973;8.83985;0.9715;0.9627;0.95358;5.33799;1504.87;15.0487;0;
200;700;100;;107637;224489;260953;8.83985;0.97684;0.96729;0.95844;5.25497;1486.14;14.8614;0;
18446744073709551066;1450;100;;133998;210604;386943;8.83985;0.90994;0.90322;0.8927;7.14158;1927.9;19.279;0;
250;250;100;163;92996;77715;457126;8.83985;0.93348;0.9218;0.91162;14.7153;3854.64;38.5464;0;
200;300;100;;92350;77833;456998;8.83985;0.93348;0.9218;0.91162;14.7153;3854.64;38.5464;0;
150;350;100;;112949;81392;493503;8.83985;0.93348;0.9218;0.91162;14.7153;3854.64;38.5464;0;
100;400;100;;92875;77693;456778;8.83985;0.93348;0.9218;0.91162;14.7153;3854.64;38.5464;0;
0;500;100;;92231;77683;456417;8.83985;0.93348;0.9218;0.91162;14.7153;3854.64;38.5464;0;
18446744073709550866;1250;100;;92684;77859;458396;8.83985;0.93348;0.9218;0.91162;14.7153;3854.64;38.5464;0;
350;350;100;;92385;78032;458808;8.83985;0.93348;0.9218;0.91162;14.7153;3854.64;38.5464;0;
300;400;100;;93062;78303;457641;8.83985;0.93348;0.9218;0.91162;14.7153;3854.64;38.5464;0;
250;450;100;;92394;77662;456807;8.83985;0.93348;0.9218;0.91162;14.7153;3854.64;38.5464;0;
200;500;100;;92288;77722;456630;8.83985;0.93348;0.9218;0.91162;14.7153;3854.64;38.5464;0;
100;600;100;;92504;77855;456809;8.83985;0.93348;0.9218;0.91162;14.7153;3854.64;38.5464;0;
18446744073709550966;1350;100;;92343;77723;456470;8.83985;0.93348;0.9218;0.91162;14.7153;3854.64;38.5464;0;
450;450;100;;92441;77498;455779;8.83985;0.93348;0.9218;0.91162;14.7153;3854.64;38.5464;0;
400;500;100;;92967;77979;456846;8.83985;0.93348;0.9218;0.91162;14.7153;3854.64;38.5464;0;
350;550;100;;92302;77424;456834;8.83985;0.93348;0.9218;0.91162;14.7153;3854.64;38.5464;0;
300;600;100;;92342;77469;455622;8.83985;0.93348;0.9218;0.91162;14.7153;3854.64;38.5464;0;
200;700;100;;92332;77583;456584;8.83985;0.93348;0.9218;0.91162;14.7153;3854.64;38.5464;0;
18446744073709551066;1450;100;;92905;77958;456739;8.83985;0.93348;0.9218;0.91162;14.7153;3854.64;38.5464;0;

MULTI WINDOW BUCKETS
#windowIndices (min); #windowIndices (max); occurrences;
0;999;562109009;
1000;1999;7714;
2000;2999;2709;
3000;3999;1308;
4000;4999;723;
5000;5999;425;
6000;6999;302;
7000;7999;205;
8000;8999;141;
9000;9999;96;
10000;10999;98;
11000;11999;74;
12000;12999;56;
13000;13999;40;
14000;14999;34;
15000;15999;20;
16000;16999;28;
17000;17999;25;
18000;18999;21;
19000;19999;25;
20000;20999;12;
21000;21999;13;
22000;22999;11;
23000;23999;15;
24000;24999;10;
25000;25999;12;
26000;26999;13;
27000;27999;9;
28000;28999;9;
29000;29999;7;
30000;30999;6;
31000;31999;9;
32000;32999;3;
33000;33999;5;
34000;34999;8;
35000;35999;4;
36000;36999;5;
37000;37999;3;
38000;38999;5;
39000;39999;3;
40000;40999;3;
41000;41999;1;
42000;42999;2;
43000;43999;4;
44000;44999;3;
45000;45999;5;
46000;46999;2;
47000;47999;1;
48000;48999;2;
49000;49999;2;
50000;50999;4;
51000;51999;3;
52000;52999;2;
53000;53999;6;
54000;54999;1;
56000;56999;2;
58000;58999;1;
59000;59999;2;
60000;60999;2;
61000;61999;2;
62000;62999;1;
63000;63999;2;
65000;65999;4;
66000;66999;1;
68000;68999;1;
69000;69999;1;
71000;71999;1;
74000;74999;2;
75000;75999;1;
77000;77999;1;
78000;78999;1;
81000;81999;1;
83000;83999;1;
86000;86999;1;
91000;91999;1;
101000;101999;1;
107000;107999;1;
111000;111999;1;
115000;115999;1;
122000;122999;1;
127000;127999;1;
132000;132999;1;
138000;138999;1;


MULTI WINDOW BUCKETS
#windowIndices (min); #windowIndices (max); occurrences;
0;99;561963449;
100;199;84080;
200;299;26213;
300;399;12783;
400;499;7597;
500;599;4880;
600;699;3550;
700;799;2692;
800;899;2128;
900;999;1637;
1000;1099;1366;
1100;1199;1166;
1200;1299;968;
1300;1399;796;
1400;1499;783;
1500;1599;652;
1600;1699;623;
1700;1799;478;
1800;1899;432;
1900;1999;450;
2000;2099;359;
2100;2199;360;
2200;2299;311;
2300;2399;268;
2400;2499;268;
2500;2599;281;
2600;2699;252;
2700;2799;217;
2800;2899;219;
2900;2999;174;
3000;3099;176;
3100;3199;204;
3200;3299;137;
3300;3399;137;
3400;3499;144;
3500;3599;123;
3600;3699;110;
3700;3799;95;
3800;3899;103;
3900;3999;79;
4000;4099;93;
4100;4199;86;
4200;4299;73;
4300;4399;76;
4400;4499;74;
4500;4599;67;
4600;4699;68;
4700;4799;77;
4800;4899;49;
4900;4999;60;
5000;5099;51;
5100;5199;52;
5200;5299;54;
5300;5399;45;
5400;5499;39;
5500;5599;36;
5600;5699;39;
5700;5799;37;
5800;5899;38;
5900;5999;34;
6000;6099;23;
6100;6199;32;
6200;6299;34;
6300;6399;42;
6400;6499;25;
6500;6599;29;
6600;6699;31;
6700;6799;33;
6800;6899;30;
6900;6999;23;
7000;7099;14;
7100;7199;22;
7200;7299;18;
7300;7399;23;
7400;7499;20;
7500;7599;21;
7600;7699;26;
7700;7799;26;
7800;7899;16;
7900;7999;19;
8000;8099;18;
8100;8199;16;
8200;8299;11;
8300;8399;15;
8400;8499;16;
8500;8599;12;
8600;8699;10;
8700;8799;16;
8800;8899;16;
8900;8999;11;
9000;9099;8;
9100;9199;14;
9200;9299;12;
9300;9399;7;
9400;9499;11;
9500;9599;7;
9600;9699;12;
9700;9799;12;
9800;9899;6;
9900;9999;7;


MULTI WINDOW BUCKETS
#windowIndices (min); #windowIndices (max); occurrences;
0;9;559593276;
10;19;1518171;
20;29;390505;
30;39;175897;
40;49;99993;
50;59;63772;
60;69;44511;
70;79;32562;
80;89;24853;
90;99;19909;
100;109;15986;
110;119;12847;
120;129;10999;
130;139;9177;
140;149;7846;
150;159;6932;
160;169;6081;
170;179;5267;
180;189;4680;
190;199;4265;
200;209;3805;
210;219;3522;
220;229;3085;
230;239;2813;
240;249;2576;
250;259;2373;
260;269;2281;
270;279;2091;
280;289;1947;
290;299;1720;
300;309;1621;
310;319;1581;
320;329;1480;
330;339;1490;
340;349;1310;
350;359;1180;
360;369;1078;
370;379;1078;
380;389;1012;
390;399;953;
400;409;965;
410;419;869;
420;429;837;
430;439;833;
440;449;738;
450;459;765;
460;469;712;
470;479;641;
480;489;617;
490;499;620;
500;509;576;
510;519;508;
520;529;554;
530;539;535;
540;549;474;
550;559;502;
560;569;461;
570;579;460;
580;589;425;
590;599;385;
600;609;408;
610;619;413;
620;629;358;
630;639;361;
640;649;372;
650;659;348;
660;669;323;
670;679;322;
680;689;326;
690;699;319;
700;709;257;
710;719;304;
720;729;296;
730;739;287;
740;749;274;
750;759;266;
760;769;270;
770;779;236;
780;789;257;
790;799;245;
800;809;251;
810;819;250;
820;829;205;
830;839;235;
840;849;221;
850;859;199;
860;869;204;
870;879;204;
880;889;192;
890;899;167;
900;909;190;
910;919;161;
920;929;188;
930;939;150;
940;949;175;
950;959;177;
960;969;161;
970;979;152;
980;989;135;
990;999;148;


MULTI WINDOW BUCKETS
#windowIndices (min); #windowIndices (max); occurrences;
1;1;478608671;
2;2;57030911;
3;3;13486597;
4;4;4919346;
5;5;2357145;
6;6;1334741;
7;7;848848;
8;8;582720;
9;9;424297;
10;10;321154;
11;11;250868;
12;12;200788;
13;13;164987;
14;14;137309;
15;15;116144;
16;16;99593;
17;17;85919;
18;18;75079;
19;19;66330;
20;20;58413;
21;21;52415;
22;22;47001;
23;23;42980;
24;24;38831;
25;25;35536;
26;26;32422;
27;27;29804;
28;28;27665;
29;29;25438;
30;30;23565;
31;31;21708;
32;32;20245;
33;33;18993;
34;34;17712;
35;35;16610;
36;36;15624;
37;37;14575;
38;38;13780;
39;39;13085;
40;40;12443;
41;41;11879;
42;42;11226;
43;43;10544;
44;44;10091;
45;45;9465;
46;46;9119;
47;47;8942;
48;48;8366;
49;49;7918;
50;50;7551;
51;51;7299;
52;52;7014;
53;53;6756;
54;54;6467;
55;55;6314;
56;56;5978;
57;57;5646;
58;58;5407;
59;59;5340;
60;60;5174;
61;61;4902;
62;62;4916;
63;63;4734;
64;64;4444;
65;65;4371;
66;66;4109;
67;67;4046;
68;68;3862;
69;69;3953;
70;70;3787;
71;71;3538;
72;72;3448;
73;73;3418;
74;74;3367;
75;75;3140;
76;76;3109;
77;77;3013;
78;78;2923;
79;79;2819;
80;80;2847;
81;81;2710;
82;82;2697;
83;83;2619;
84;84;2469;
85;85;2390;
86;86;2380;
87;87;2335;
88;88;2224;
89;89;2182;
90;90;2265;
91;91;2111;
92;92;2101;
93;93;2067;
94;94;2005;
95;95;1999;
96;96;1854;
97;97;1903;
98;98;1857;
99;99;1747;

