Vary Read length, with variants
q = 17
gapString = ################################################################
winSize = 420
winOff = 375
sigLng = 97
bandSize = 1
limit = 3
limitSkip = 3
minCountSelection = 2
minCountPrefiltering = 1
maxSelect = 64
nextFactor = 4
contractBandMultiplicator = 0.3
extendBandMultiplicator = 0.3
extendFactor = 0.43
alignerMaxReturnedWindows = 1000
alignerMaxErrorLow = 12
alignerMaxClipLow = 0
alignerMaxErrorHigh = 30
alignerMaxClipHigh = 0
alignerMaxSelect = 16
alignerNextFactor = 2
variantProbabilityThreshold = 0.2

Q-GRAM-SIZE (64-bit q-grams, no gaps)
q-gram size; Read Length; LSH build time (s); Search time per Read (ns); Time LSH per Read (ns); Time Aligner per Read (ns); LSH memory usage (GB); Correct Intersection Found; Correct Interval Found; Correct Alignment Found; Wrong Intervals per Read; Columns per Read; Extra alignment calculation factor; No Interval Found;
14;300;207;78413;550751;490701;5.65165;0.997321;0.995654;0.9762;5.22028;4264.79;14.216;0;
15;300;211;61723;424906;466402;6.55249;0.997512;0.996;0.97676;4.89813;4026.38;13.4213;0;
16;300;214;52159;357828;458298;7.52543;0.997768;0.996419;0.97719;4.61259;3792.9;12.643;0;
17;300;217;48599;325464;449639;8.69366;0.99793;0.996653;0.97765;4.45542;3680.08;12.2669;0;
18;300;224;45175;305030;444204;9.5891;0.997955;0.996713;0.97705;4.25461;3532.53;11.7751;0;
19;300;228;43641;288532;447014;10.0916;0.997979;0.996821;0.97746;4.16518;3453.74;11.5125;0;
20;300;232;42328;280058;433378;10.3431;0.998065;0.996871;0.97759;4.0331;3361.84;11.2061;1e-06;
21;300;236;40446;269082;435661;10.4953;0.998183;0.996996;0.97784;3.88225;3259.17;10.8639;1e-06;
22;300;242;40145;262476;444629;10.5817;0.998198;0.997023;0.97796;3.80788;3207.68;10.6923;1e-06;
23;300;244;38946;253728;426172;10.6567;0.998329;0.997247;0.9781;3.70313;3134.33;10.4478;1e-06;
24;300;249;38037;247169;429840;10.7215;0.998309;0.997227;0.97839;3.64652;3103.04;10.3435;2e-06;
25;300;258;37084;241927;445000;10.7765;0.99833;0.997293;0.97792;3.59332;3072.54;10.2418;3e-06;
14;300;207;88412;526719;1469314;5.65165;0.994472;0.992818;0.98133;8.17704;6237.35;20.7912;0;
15;300;210;71066;404290;1429203;6.55249;0.99475;0.993193;0.982;7.82906;6002.65;20.0088;0;
16;300;214;61785;336733;1382579;7.52543;0.994983;0.993551;0.98265;7.59112;5820.16;19.4005;0;
17;300;216;56621;299906;1377832;8.69366;0.995012;0.993664;0.98291;7.48163;5750.91;19.1697;0;
18;300;220;54212;278660;1366952;9.5891;0.995119;0.993901;0.98298;7.35536;5670.25;18.9008;0;
19;300;228;51700;264478;1372289;10.0916;0.994909;0.993675;0.98245;7.32036;5647.4;18.8247;0;
20;300;233;51663;255865;1406761;10.3431;0.99488;0.993597;0.98252;7.29746;5645.95;18.8198;1e-06;
21;300;237;49953;247073;1382783;10.4953;0.994884;0.993607;0.98289;7.16815;5579.27;18.5976;5e-06;
22;300;240;48761;237719;1374159;10.5817;0.994561;0.99325;0.98188;7.14194;5579.13;18.5971;6e-06;
23;300;244;48244;230325;1400051;10.6567;0.994361;0.992941;0.98175;7.03821;5529.83;18.4328;1.2e-05;
24;300;249;46956;222863;1406447;10.7215;0.993993;0.992515;0.98086;6.96656;5508.66;18.3622;2.5e-05;
25;300;255;46867;219889;1417390;10.7765;0.993584;0.991893;0.98046;6.92922;5505.51;18.3517;5.9e-05;
14;300;206;187468;486091;9559719;5.65165;0.97947;0.977561;0.96152;19.6732;14174.1;47.2471;0;
15;300;210;161791;365046;8774797;6.55249;0.978617;0.97663;0.96136;17.4422;12836.5;42.7885;0;
16;300;213;144441;300229;8084665;7.52543;0.977794;0.97561;0.95974;15.7782;11729.3;39.0976;0;
17;300;217;133365;263664;7661102;8.69366;0.975388;0.972782;0.95695;14.6049;10940.8;36.4692;0;
18;300;221;126550;241834;7338409;9.5891;0.97271;0.969483;0.95509;13.9629;10532.1;35.1071;3e-06;
19;300;227;123099;229033;7216217;10.0916;0.968785;0.96474;0.95101;13.4713;10230;34.0999;5.1e-05;
20;300;232;121629;220849;7109850;10.3431;0.965125;0.960185;0.946;13.1758;10067.8;33.5594;0.000374;
21;300;236;117344;210632;6970356;10.4953;0.961724;0.955548;0.94146;12.7424;9820.09;32.7336;0.001148;
22;300;240;116381;203843;6915844;10.5817;0.955746;0.948004;0.93487;12.375;9598.01;31.9934;0.002533;
23;300;244;111437;197660;6679013;10.6567;0.950132;0.940858;0.92811;11.8899;9294.02;30.9801;0.004333;
24;300;249;110914;193228;6561752;10.7215;0.942617;0.931584;0.91829;11.4188;8994.51;29.9817;0.006791;
25;300;255;106907;189250;6359595;10.7765;0.933376;0.920234;0.90925;10.9446;8677.51;28.925;0.010222;

Q-GRAM-SIZE (middle gap)
q-gram size; Read Length; LSH build time (s); Search time per Read (ns); Time LSH per Read (ns); Time Aligner per Read (ns); LSH memory usage (GB); Correct Intersection Found; Correct Interval Found; Correct Alignment Found; Wrong Intervals per Read; Columns per Read; Extra alignment calculation factor; No Interval Found;
15;300;208;74422;527309;465571;5.6884;0.99735;0.995786;0.9762;4.74515;3946.07;13.1536;0;
16;300;212;60459;415245;461412;6.58377;0.997579;0.996178;0.97689;4.52761;3761.45;12.5382;0;
17;300;216;50906;349866;445613;7.57261;0.997763;0.99641;0.97693;4.26157;3571.04;11.9035;0;
18;300;220;47289;316622;442936;8.75183;0.997944;0.996689;0.97701;4.04293;3410.2;11.3673;0;
19;300;225;44998;298443;441167;9.63062;0.998024;0.996832;0.97784;3.96956;3340.86;11.1362;0;
20;300;230;43143;285360;429805;10.1267;0.998172;0.997007;0.97784;3.79684;3209.43;10.6981;0;
21;300;235;41130;274063;431386;10.366;0.998161;0.997007;0.97779;3.70647;3143.71;10.479;0;
22;300;242;40430;265596;431682;10.5091;0.998264;0.997107;0.9772;3.61709;3093.86;10.3129;1e-06;
23;300;245;39291;257596;429416;10.603;0.998267;0.997188;0.97786;3.4955;3008.56;10.0285;1e-06;
24;300;252;38529;251156;432358;10.6783;0.998263;0.997164;0.97794;3.41923;2953.53;9.84511;1e-06;
25;300;258;36898;243956;415035;10.7349;0.998369;0.997296;0.97833;3.40545;2949.95;9.83317;2e-06;
26;300;263;37058;239837;421975;10.7919;0.998376;0.997338;0.97851;3.33786;2905.3;9.68432;3e-06;
15;300;209;84167;507852;1361282;5.6884;0.994859;0.993356;0.98236;7.38914;5729.66;19.0989;0;
16;300;213;67704;389943;1351024;6.58377;0.995021;0.993608;0.98225;7.21821;5589.66;18.6322;0;
17;300;215;59940;328533;1329880;7.57261;0.995212;0.993851;0.98248;6.99533;5441.55;18.1385;0;
18;300;221;54702;291760;1296505;8.75183;0.995346;0.994052;0.98273;6.81597;5320.74;17.7358;0;
19;300;225;52029;273747;1303097;9.63062;0.995318;0.994069;0.98305;6.84805;5339.88;17.7996;0;
20;300;230;51301;261154;1306726;10.1267;0.995373;0.994169;0.98357;6.74478;5274.36;17.5812;0;
21;300;236;50011;250798;1330169;10.366;0.995277;0.994042;0.98289;6.73623;5280.79;17.6026;0;
22;300;241;48987;241906;1352636;10.5091;0.995084;0.993821;0.9828;6.67119;5263.7;17.5457;3e-06;
23;300;245;47681;233438;1332175;10.603;0.995036;0.993766;0.98319;6.59132;5226.25;17.4208;4e-06;
24;300;251;46915;226459;1330135;10.6783;0.994805;0.993443;0.98259;6.51605;5192.88;17.3096;1e-05;
25;300;258;45951;221131;1352319;10.7349;0.99453;0.993075;0.9817;6.51274;5213.81;17.3794;2.4e-05;
26;300;263;45756;216221;1361545;10.7919;0.994169;0.992529;0.98199;6.4298;5178.52;17.2617;4.4e-05;
15;300;209;171184;469331;8517351;5.6884;0.981433;0.979524;0.96415;17.0667;12461.9;41.5397;0;
16;300;212;148430;354641;8017895;6.58377;0.980358;0.978423;0.96327;15.7429;11693.3;38.9775;0;
17;300;215;135266;291799;7515650;7.57261;0.979545;0.977496;0.96227;14.4416;10840.7;36.1356;0;
18;300;221;124263;257955;7070274;8.75183;0.977765;0.97523;0.95928;13.4667;10198.3;33.9943;0;
19;300;226;119445;237641;6929288;9.63062;0.974817;0.971679;0.95677;13.1206;9982.3;33.2743;0;
20;300;230;118115;224166;6842825;10.1267;0.971727;0.967821;0.95314;12.7085;9740.34;32.4678;3.4e-05;
21;300;235;117190;215586;6815187;10.366;0.968327;0.963486;0.94963;12.4512;9608.09;32.027;0.00033;
22;300;241;113105;206380;6687577;10.5091;0.964395;0.958532;0.94507;12.092;9407.46;31.3582;0.000955;
23;300;245;111726;201169;6604084;10.603;0.959951;0.952591;0.9398;11.6755;9151.51;30.505;0.002041;
24;300;251;109529;195916;6428306;10.6783;0.954167;0.945111;0.9323;11.2755;8901.54;29.6718;0.003624;
25;300;259;106067;191555;6284885;10.7349;0.946288;0.935365;0.92395;10.8778;8641.11;28.8037;0.005881;
26;300;263;103713;187712;6136834;10.7919;0.938458;0.925757;0.91522;10.371;8301.14;27.6705;0.008785;

Q-GRAM-SIZE (single gap left: #[5]-#[q-6])
q-gram size; Read Length; LSH build time (s); Search time per Read (ns); Time LSH per Read (ns); Time Aligner per Read (ns); LSH memory usage (GB); Correct Intersection Found; Correct Interval Found; Correct Alignment Found; Wrong Intervals per Read; Columns per Read; Extra alignment calculation factor; No Interval Found;
15;300;208;75590;528878;468406;5.68593;0.997404;0.995826;0.97645;4.78044;3968.17;13.2272;0;
16;300;212;60369;417166;464627;6.58386;0.997645;0.996218;0.97684;4.51222;3762.73;12.5424;0;
17;300;215;52135;353144;444713;7.57327;0.997893;0.996598;0.97734;4.29481;3587.78;11.9593;0;
18;300;221;47609;318854;444107;8.75167;0.997946;0.996703;0.97726;4.07272;3424.99;11.4166;0;
19;300;227;44807;297477;439524;9.62825;0.997957;0.996706;0.97772;3.98543;3355.51;11.185;0;
20;300;231;43159;284673;435226;10.1123;0.99812;0.996958;0.97761;3.84397;3247.83;10.8261;0;
21;300;237;42095;274943;457784;10.3721;0.998243;0.997085;0.9778;3.71103;3161.41;10.538;2e-06;
22;300;241;40394;265212;426528;10.5167;0.998217;0.997036;0.97799;3.59737;3075.45;10.2515;1e-06;
23;300;245;39496;258270;459298;10.6056;0.99827;0.99717;0.97799;3.52994;3029.48;10.0983;0;
24;300;251;38624;251178;427055;10.6736;0.998294;0.99717;0.97791;3.5062;3017.19;10.0573;3e-06;
25;300;256;37067;243558;428615;10.7333;0.998296;0.997196;0.97816;3.43272;2967.49;9.89165;4e-06;
26;300;260;36569;238564;431859;10.7894;0.998324;0.997249;0.97813;3.36551;2929.17;9.7639;3e-06;
15;300;208;84257;505939;1371825;5.68593;0.994796;0.993276;0.98235;7.42546;5749.12;19.1637;0;
16;300;212;68514;390577;1341966;6.58386;0.995104;0.993693;0.98241;7.17865;5570.03;18.5668;0;
17;300;215;60136;329600;1315997;7.57327;0.995184;0.993806;0.9828;7.03475;5465.35;18.2178;0;
18;300;221;55381;295053;1301187;8.75167;0.995391;0.994129;0.98291;6.86409;5350.73;17.8358;0;
19;300;227;52121;273318;1314997;9.62825;0.995243;0.993981;0.98277;6.89725;5375.91;17.9197;0;
20;300;232;51324;260253;1325244;10.1123;0.995308;0.994061;0.9831;6.84941;5351.69;17.839;0;
21;300;236;51113;250880;1404369;10.3721;0.995193;0.99395;0.98242;6.71317;5278.23;17.5941;0;
22;300;241;48957;240863;1359077;10.5167;0.995154;0.993926;0.98296;6.6731;5266.01;17.5534;3e-06;
23;300;245;48194;234596;1366354;10.6056;0.994846;0.993547;0.98228;6.62769;5252.84;17.5095;1e-05;
24;300;251;47058;226924;1361951;10.6736;0.994643;0.9933;0.98232;6.62919;5274.51;17.5817;1.4e-05;
25;300;256;46495;222292;1353952;10.7333;0.994372;0.992944;0.9815;6.57538;5258.99;17.53;2.8e-05;
26;300;260;46612;217126;1424039;10.7894;0.993975;0.992257;0.98151;6.48507;5222.9;17.4097;5.3e-05;
15;300;208;171909;470814;8498323;5.68593;0.981164;0.97941;0.96367;17.144;12507.7;41.6924;0;
16;300;214;150394;354406;8078287;6.58386;0.980831;0.97891;0.96316;15.6952;11666.1;38.8869;0;
17;300;215;134746;292232;7530516;7.57327;0.979451;0.977303;0.96158;14.4841;10869.3;36.231;0;
18;300;221;125857;258490;7124135;8.75167;0.977878;0.975361;0.9598;13.5465;10249.8;34.1661;0;
19;300;227;119963;238895;6950121;9.62825;0.974508;0.97136;0.95674;13.145;10000.5;33.3351;1e-06;
20;300;231;117852;224449;6883079;10.1123;0.971548;0.967624;0.95235;12.8059;9819.29;32.731;3.8e-05;
21;300;237;117243;214209;6857772;10.3721;0.968224;0.963372;0.94978;12.424;9599.32;31.9977;0.000289;
22;300;241;114132;207000;6695552;10.5167;0.964294;0.958306;0.94452;12.0903;9405.67;31.3522;0.001023;
23;300;245;111415;200178;6594362;10.6056;0.958868;0.951269;0.93793;11.7063;9174.51;30.5817;0.002211;
24;300;251;110417;196504;6495818;10.6736;0.953085;0.943911;0.93144;11.3712;8968.41;29.8947;0.003788;
25;300;256;106745;191431;6329744;10.7333;0.945382;0.934477;0.92403;10.9119;8669.29;28.8976;0.006189;
26;300;260;104085;187878;6163195;10.7894;0.936478;0.923663;0.91309;10.4248;8342.23;27.8074;0.009141;
q = 17
gapString = ################################################################
winSize = 490
winOff = 437
sigLng = 110
bandSize = 1
limit = 3
limitSkip = 3
minCountSelection = 2
minCountPrefiltering = 1
maxSelect = 64
nextFactor = 4
contractBandMultiplicator = 0.3
extendBandMultiplicator = 0.3
extendFactor = 0.43
alignerMaxReturnedWindows = 1000
alignerMaxErrorLow = 14
alignerMaxClipLow = 0
alignerMaxErrorHigh = 35
alignerMaxClipHigh = 0
alignerMaxSelect = 16
alignerNextFactor = 2
variantProbabilityThreshold = 0.2

Q-GRAM-SIZE (64-bit q-grams, no gaps)
q-gram size; Read Length; LSH build time (s); Search time per Read (ns); Time LSH per Read (ns); Time Aligner per Read (ns); LSH memory usage (GB); Correct Intersection Found; Correct Interval Found; Correct Alignment Found; Wrong Intervals per Read; Columns per Read; Extra alignment calculation factor; No Interval Found;
14;350;218;92342;651487;588515;5.68198;0.998087;0.996423;0.98163;4.06533;4099.82;11.7138;0;
15;350;221;73844;507284;568504;6.5592;0.998222;0.996748;0.98192;3.83176;3887.51;11.1072;0;
16;350;225;63875;430803;569450;7.51178;0.998363;0.996929;0.98209;3.60388;3654.15;10.4404;0;
17;350;232;63127;392859;891543;8.65422;0.998455;0.99709;0.98241;3.48636;3536.73;10.1049;0;
18;350;237;57826;365743;786199;9.53188;0.998546;0.997256;0.98285;3.33975;3407.44;9.73554;0;
19;350;240;53132;350094;582016;10.0285;0.998561;0.997352;0.98279;3.25631;3316.74;9.47639;0;
20;350;244;51466;339616;557258;10.2715;0.998622;0.9975;0.98286;3.1806;3255.82;9.30234;0;
21;350;248;50304;329901;569347;10.4206;0.998727;0.997634;0.98301;3.06734;3152.93;9.00838;1e-06;
22;350;253;48173;318446;542394;10.5046;0.998692;0.997586;0.9828;2.99917;3094.99;8.84284;1e-06;
23;350;256;47069;309901;548627;10.5792;0.998762;0.997687;0.98295;2.94081;3041.44;8.68982;0;
24;350;261;47088;304351;552652;10.6418;0.998764;0.997714;0.98287;2.92084;3026.46;8.64702;1e-06;
25;350;268;45307;296005;542321;10.695;0.998768;0.997754;0.98269;2.88448;3001.29;8.57511;1e-06;
14;350;216;101311;616097;1578915;5.68198;0.996501;0.994789;0.98744;6.44388;5962.96;17.037;0;
15;350;221;81098;474238;1538906;6.5592;0.996749;0.995199;0.98792;6.2491;5787.65;16.5361;0;
16;350;224;71230;400648;1513864;7.51178;0.996769;0.995386;0.98795;6.09201;5619.73;16.0564;0;
17;350;228;67070;361427;1521726;8.65422;0.996786;0.99547;0.98802;6.07263;5586.91;15.9626;0;
18;350;232;63757;335194;1532986;9.53188;0.996873;0.995571;0.98843;6.01869;5537.33;15.821;0;
19;350;238;62353;317530;1631683;10.0285;0.996864;0.995694;0.98834;5.99921;5515.25;15.7579;0;
20;350;243;60216;310759;1578186;10.2715;0.996801;0.995661;0.98808;6.04486;5558.53;15.8815;0;
21;350;247;58922;297406;1575952;10.4206;0.996703;0.995578;0.98844;5.98266;5513;15.7514;2e-06;
22;350;252;57989;288856;1607131;10.5046;0.996505;0.995307;0.98821;5.99146;5535.54;15.8158;2e-06;
23;350;256;57442;282871;1609548;10.5792;0.996525;0.995371;0.98829;5.94379;5508.86;15.7396;5e-06;
24;350;260;56908;275748;1634374;10.6418;0.996254;0.995105;0.98779;5.96044;5543.08;15.8374;4e-06;
25;350;267;55706;267506;1642467;10.695;0.996039;0.994823;0.98778;5.95848;5561.28;15.8894;1.7e-05;
14;350;216;211587;571290;10546932;5.68198;0.986708;0.984863;0.96976;15.8027;13367.4;38.1926;0;
15;350;220;186595;430687;9998396;6.5592;0.986202;0.984345;0.96887;14.5302;12484.3;35.6693;0;
16;350;224;170084;360343;9522259;7.51178;0.985444;0.98367;0.96855;13.7231;11884.9;33.957;0;
17;350;228;162168;319327;9272473;8.65422;0.983736;0.981777;0.96703;13.2042;11498.1;32.8517;0;
18;350;231;157951;296146;9200615;9.53188;0.982003;0.979722;0.96505;12.9186;11317.8;32.3365;0;
19;350;238;154953;279334;9132708;10.0285;0.979743;0.976975;0.96232;12.6772;11183.3;31.9524;1e-05;
20;350;243;155056;269856;9176534;10.2715;0.976848;0.973488;0.95934;12.6441;11210.3;32.0293;0.000127;
21;350;246;151954;261235;9051356;10.4206;0.974138;0.96998;0.95609;12.3215;11011.7;31.4621;0.000428;
22;350;251;149571;253064;8988896;10.5046;0.970211;0.964943;0.95107;12.0979;10885;31.1001;0.000982;
23;350;255;147132;248639;8792967;10.5792;0.965889;0.959535;0.94678;11.7519;10651.5;30.4328;0.001873;
24;350;260;144905;242422;8727525;10.6418;0.960275;0.952267;0.94015;11.4016;10408.8;29.7396;0.003131;
25;350;266;143165;240157;8640518;10.695;0.953503;0.943748;0.93216;11.0181;10125.3;28.9293;0.005103;

Q-GRAM-SIZE (middle gap)
q-gram size; Read Length; LSH build time (s); Search time per Read (ns); Time LSH per Read (ns); Time Aligner per Read (ns); LSH memory usage (GB); Correct Intersection Found; Correct Interval Found; Correct Alignment Found; Wrong Intervals per Read; Columns per Read; Extra alignment calculation factor; No Interval Found;
15;350;217;89007;620908;561215;5.71648;0.998174;0.996563;0.98188;3.73179;3830.73;10.9449;0;
16;350;221;71820;493716;563494;6.59006;0.998276;0.996811;0.98196;3.55322;3649.77;10.4279;0;
17;350;225;61028;417501;551032;7.55432;0.998391;0.997008;0.98215;3.34713;3465.89;9.90253;0;
18;350;230;56903;379799;547799;8.70952;0.998499;0.997196;0.98255;3.17508;3305.48;9.44422;0;
19;350;235;53049;356574;544830;9.57041;0.998568;0.997428;0.98268;3.10882;3236.04;9.24584;0;
20;350;240;52189;343773;548377;10.0588;0.99859;0.997443;0.98299;2.99068;3108.49;8.88139;1e-06;
21;350;245;51926;332852;565861;10.2945;0.998725;0.997607;0.98288;2.92095;3043.45;8.69556;1e-06;
22;350;251;49786;324040;562186;10.433;0.9987;0.997595;0.98321;2.85865;3001.41;8.57545;0;
23;350;255;48359;313474;606397;10.5263;0.998796;0.997713;0.98305;2.77549;2927.67;8.36478;1e-06;
24;350;262;47250;307848;556578;10.601;0.998729;0.99768;0.98268;2.73345;2887.04;8.2487;1e-06;
25;350;269;46553;300597;544880;10.6543;0.998787;0.997748;0.98325;2.71692;2876.03;8.21722;1e-06;
26;350;274;45661;294578;543682;10.7095;0.998823;0.997787;0.98288;2.68509;2846.61;8.13317;0;
15;350;217;96221;591070;1490415;5.71648;0.9968;0.99514;0.98771;5.83054;5491.03;15.6887;0;
16;350;221;80000;464673;1490006;6.59006;0.99688;0.995425;0.98794;5.73178;5373.27;15.3522;0;
17;350;225;68973;390937;1451382;7.55432;0.996925;0.995506;0.98809;5.59274;5248.86;14.9968;0;
18;350;230;64846;351878;1461628;8.70952;0.997087;0.995799;0.98819;5.48467;5150.91;14.7169;0;
19;350;235;62116;330263;1460030;9.57041;0.997102;0.995902;0.98854;5.52797;5172.01;14.7772;0;
20;350;240;59909;314531;1477030;10.0588;0.997064;0.995879;0.98876;5.50152;5133.65;14.6676;0;
21;350;245;59739;309124;1541115;10.2945;0.996976;0.995788;0.98862;5.50838;5139.63;14.6847;0;
22;350;251;58472;295439;1559073;10.433;0.996892;0.995717;0.98876;5.53369;5181.45;14.8042;0;
23;350;255;56293;284464;1519004;10.5263;0.996874;0.995735;0.98826;5.46559;5135.78;14.6737;0;
24;350;262;57146;280081;1631917;10.601;0.996709;0.995582;0.98843;5.47291;5153.61;14.7246;0;
25;350;269;54511;270526;1525274;10.6543;0.996589;0.995447;0.9885;5.51168;5202.96;14.8656;2e-06;
26;350;274;55008;267516;1573034;10.7095;0.996386;0.995234;0.9883;5.49221;5203.99;14.8686;1e-05;
15;350;217;195570;550497;9540025;5.71648;0.988191;0.986404;0.97091;13.7499;11811.2;33.7463;0;
16;350;221;174455;418208;9230373;6.59006;0.987668;0.985997;0.96987;13.1084;11384.8;32.5279;0;
17;350;225;161516;351241;8882342;7.55432;0.986707;0.984937;0.96988;12.55;10986.3;31.3893;0;
18;350;231;153697;312317;8673678;8.70952;0.9858;0.983828;0.96837;12.0963;10673.2;30.4948;0;
19;350;235;150707;291360;8670824;9.57041;0.983666;0.981437;0.96663;12.0369;10664.6;30.4703;1e-06;
20;350;240;149949;277477;8749285;10.0588;0.98152;0.978899;0.96444;11.8794;10584.4;30.2411;6e-06;
21;350;246;148398;263138;8744814;10.2945;0.979291;0.976003;0.96124;11.7813;10563;30.1799;8.7e-05;
22;350;251;151035;261423;9061221;10.433;0.976186;0.972251;0.95828;11.6095;10486.9;29.9626;0.000352;
23;350;255;144054;248746;8554136;10.5263;0.973115;0.968133;0.95423;11.347;10322.9;29.494;0.000827;
24;350;262;140591;244282;8418427;10.601;0.968978;0.962736;0.9499;11.0539;10123.8;28.925;0.001565;
25;350;269;139777;239055;8399902;10.6543;0.963508;0.95581;0.94236;10.7831;9941.49;28.4042;0.002728;
26;350;274;138018;235548;8216272;10.7095;0.957151;0.947773;0.93547;10.3757;9636.87;27.5339;0.00424;

Q-GRAM-SIZE (single gap left: #[5]-#[q-6])
q-gram size; Read Length; LSH build time (s); Search time per Read (ns); Time LSH per Read (ns); Time Aligner per Read (ns); LSH memory usage (GB); Correct Intersection Found; Correct Interval Found; Correct Alignment Found; Wrong Intervals per Read; Columns per Read; Extra alignment calculation factor; No Interval Found;
15;350;217;89311;620018;562577;5.71385;0.998176;0.996617;0.98175;3.7393;3860.46;11.0299;0;
16;350;221;71818;491781;562933;6.5903;0.99834;0.996888;0.98243;3.51594;3633.62;10.3818;0;
17;350;224;62345;420277;553984;7.55642;0.998381;0.99699;0.98228;3.34541;3449.82;9.85663;0;
18;350;230;56904;380617;545846;8.70975;0.99851;0.997201;0.98252;3.19941;3315.28;9.47223;0;
19;350;237;52971;356267;542478;9.56906;0.998554;0.99735;0.98274;3.13754;3253.21;9.29488;0;
20;350;241;53059;345833;646209;10.0449;0.998674;0.9975;0.98273;3.03291;3151.98;9.00565;0;
21;350;251;57859;334806;1135091;10.2986;0.998702;0.997554;0.98256;2.92664;3071.33;8.77523;0;
22;350;250;50501;322868;702419;10.4421;0.998726;0.997648;0.98321;2.84248;2986.09;8.53168;0;
23;350;255;48246;314187;595342;10.5276;0.998762;0.997671;0.98322;2.80669;2951.43;8.43266;1e-06;
24;350;262;47217;307974;568519;10.5936;0.998723;0.997643;0.98301;2.80218;2946.9;8.41973;0;
25;350;266;46246;300233;546362;10.6538;0.9988;0.997753;0.9828;2.76489;2911.02;8.31719;1e-06;
