Artifical Variants
ARTIFICAL VARIANTS
variant probability; addVariants; Read Length; LSH build time (s); Search time per Read (ns); Time LSH per Read (ns); Time Aligner per Read (ns); LSH memory usage (GB); Correct Intersection Found; Correct Interval Found; Correct Alignment Found; Wrong Intervals per Read; Columns per Read; Extra alignment calculation factor; No Interval Found;
0.0001;0;100;199;18319;87087;521553;8.83968;0.933244;0.922604;0.90799;14.8355;3885.5;38.855;1.2e-05;
0.0001;0;150;186;27158;133893;738768;9.15803;0.974871;0.971505;0.96241;12.2611;4725.83;31.5056;0;
0.0001;0;200;198;36701;190364;914445;9.39483;0.987791;0.986006;0.97386;9.91949;5051.93;25.2597;0;
0.0001;0;300;226;60569;334589;1281724;9.86019;0.995802;0.994506;0.98826;6.79487;5274.03;17.5801;0;
0.0001;0;500;283;121991;702818;2336807;10.7417;0.998847;0.997518;0.99031;3.09286;4737.32;9.47465;0;
0.0001;1;100;180;18154;82316;536144;8.83874;0.921014;0.909631;0.89503;15.5284;4063.12;40.6312;1.2e-05;
0.0001;1;150;197;28141;131931;790650;9.15464;0.970037;0.966267;0.9571;13.1392;5064.9;33.766;1e-06;
0.0001;1;200;215;38742;190991;1024607;9.38984;0.985408;0.98351;0.97133;10.803;5488.35;27.4417;0;
0.0001;1;300;249;63039;333419;1405596;9.85331;0.994958;0.993666;0.98737;7.59792;5828.78;19.4293;0;
0.0001;1;500;312;123418;701450;2403499;10.7335;0.998572;0.997296;0.9897;3.58853;5300.95;10.6019;0;
0.05;0;100;187;23840;80576;1027368;8.83968;0.931255;0.920564;0.88368;14.9142;3905.12;39.0512;1.6e-05;
0.05;0;150;184;30269;131413;915245;9.15803;0.974043;0.970598;0.94029;12.4152;4782.28;31.8819;0;
0.05;0;200;199;37383;189695;944840;9.39483;0.987362;0.985519;0.96002;9.98702;5083.8;25.419;0;
0.05;0;300;224;62473;331595;1400483;9.86019;0.995604;0.994271;0.97724;6.9219;5358.46;17.8615;0;
0.05;0;500;284;125503;699245;2656418;10.7417;0.998824;0.997442;0.99056;3.16785;4834.87;9.66974;0;
0.05;1;100;181;18890;83167;581697;8.83864;0.921721;0.910463;0.89347;15.5136;4059.47;40.5947;1.5e-05;
0.05;1;150;200;28214;132947;796334;9.15457;0.970392;0.966731;0.95648;13.1511;5069.18;33.7946;0;
0.05;1;200;214;38120;190285;981784;9.38989;0.985568;0.983679;0.97488;10.7277;5451.73;27.2587;0;
0.05;1;300;249;62826;331661;1436635;9.85334;0.99506;0.993749;0.98791;7.58475;5816.99;19.39;0;
0.05;1;500;316;127236;702093;2686272;10.7337;0.99866;0.997294;0.99538;3.56407;5276.78;10.5536;0;
0.1;0;100;223;28793;88352;1287890;8.83968;0.930046;0.919057;0.8686;14.9525;3915.76;39.1576;1.1e-05;
0.1;0;150;186;28174;132932;790570;9.15803;0.973552;0.970015;0.92427;12.4983;4816.38;32.1092;0;
0.1;0;200;199;38416;189555;949478;9.39483;0.987357;0.985562;0.9448;10.1323;5148.67;25.7434;0;
0.1;0;300;227;64778;330773;1523082;9.86019;0.995598;0.994186;0.96227;7.04379;5447.22;18.1574;0;
0.1;0;500;282;138201;711281;3414423;10.7417;0.998815;0.997479;0.97885;3.19145;4858.26;9.71652;0;
0.1;1;100;181;19038;84494;584617;8.8386;0.92248;0.91109;0.9015;15.4601;4047.11;40.4711;1.1e-05;
0.1;1;150;198;28190;132488;804840;9.15458;0.970979;0.967241;0.96007;13.0965;5050.79;33.6719;0;
0.1;1;200;215;37729;190005;960281;9.38971;0.986199;0.984402;0.97874;10.7147;5439.72;27.1986;0;
0.1;1;300;252;63710;332298;1449356;9.85321;0.995304;0.993925;0.98801;7.55272;5798.89;19.3296;0;
0.1;1;500;320;131445;701646;3010614;10.7335;0.998769;0.997457;0.99162;3.49348;5192.61;10.3852;0;
