q = 17
gapString = ################################################################
winSize = 70
winOff = 62
sigLng = 36
bandSize = 1
limit = 3
limitSkip = 3
minCountSelection = 2
minCountPrefiltering = 1
maxSelect = 64
nextFactor = 4
contractBandMultiplicator = 0.3
extendBandMultiplicator = 0.3
extendFactor = 0.43
alignerMaxReturnedWindows = 1000
alignerMaxErrorLow = 2
alignerMaxClipLow = 0
alignerMaxErrorHigh = 5
alignerMaxClipHigh = 0
alignerMaxSelect = 16
alignerNextFactor = 2
variantProbabilityThreshold = 0.2
ORIGINAL
Read Length; LSH build time (s); Search time per Read (ns); Time LSH per Read (ns); Time Aligner per Read (ns); LSH memory usage (GB); Correct Intersection Found; Correct Interval Found; Correct Alignment Found; Wrong Intervals per Read; Columns per Read; Extra alignment calculation factor; No Interval Found;
50;503;7402070;56665840;9907456;16.7305;0.919201;0.913558;0.802772;15.6005;1964.7;39.294;0.000376284;
100;188;11979;65498;244025;9.08667;0.965914;0.960796;0.700391;6.42769;1751.75;17.5175;3.31399e-05;
150;163;15429;28241;170425;6.43855;0.99525;0.992717;0.0298192;0.408603;451.864;3.01243;2.63887e-05;
250;164;24978;119070;685944;4.25781;0.989623;0.98857;0.53416;5.42871;3645.02;14.5801;2e-06;

CONST MEMORYconst-memory; Read Length; LSH build time (s); Search time per Read (ns); Time LSH per Read (ns); Time Aligner per Read (ns); LSH memory usage (GB); Correct Intersection Found; Correct Interval Found; Correct Alignment Found; Wrong Intervals per Read; Columns per Read; Extra alignment calculation factor; No Interval Found;
0.36;50;138;7850;49367;83125;8.61542;0.898987;0.89259;0.790065;15.9009;1988.51;39.7702;0.00106345;
0.36;100;163;11423;64967;232389;9.08667;0.965914;0.960796;0.700391;6.42769;1751.75;17.5175;3.31399e-05;
0.36;150;180;14387;38833;94848;9.4095;0.997308;0.995831;0.0298192;0.418155;453.288;3.02192;0;
0.36;250;210;45110;287256;590850;9.8994;0.993657;0.992905;0.53573;3.6833;2583.29;10.3332;0;
