Paired vs Single, with variants
q = 17
gapString = ################################################################
winSize = 140
winOff = 125
sigLng = 36
bandSize = 1
limit = 3
limitSkip = 3
minCountSelection = 2
minCountPrefiltering = 1
maxSelect = 64
nextFactor = 4
contractBandMultiplicator = 0.3
extendBandMultiplicator = 0.3
extendFactor = 0.43
alignerMaxReturnedWindows = 1000
alignerMaxErrorLow = 4
alignerMaxClipLow = 0
alignerMaxErrorHigh = 10
alignerMaxClipHigh = 0
alignerMaxSelect = 16
alignerNextFactor = 2
variantProbabilityThreshold = 0.2
ORIGINAL
Read Length; LSH build time (s); Search time per Read (ns); Time LSH per Read (ns); Time Aligner per Read (ns); LSH memory usage (GB); Correct Intersection Found; Correct Interval Found; Correct Alignment Found; Wrong Intervals per Read; Columns per Read; Extra alignment calculation factor; No Interval Found;
100;164;39133;252815;357410;8.83578;0.976153;0.967146;0.95842;5.09663;1450.5;14.505;9e-06;
100;164;17074;80880;491252;8.83578;0.933824;0.923036;0.90971;14.6571;3844.19;38.4419;9e-06;

CONST MEMORYconst-memory; Read Length; LSH build time (s); Search time per Read (ns); Time LSH per Read (ns); Time Aligner per Read (ns); LSH memory usage (GB); Correct Intersection Found; Correct Interval Found; Correct Alignment Found; Wrong Intervals per Read; Columns per Read; Extra alignment calculation factor; No Interval Found;
0.36;100;166;39183;253120;353424;8.83578;0.976153;0.967146;0.95842;5.09663;1450.5;14.505;9e-06;
0.36;100;164;17075;80878;491065;8.83578;0.933824;0.923036;0.90971;14.6571;3844.19;38.4419;9e-06;
