Vary Read length, with variants
q = 17
gapString = ################################################################
winSize = 140
winOff = 125
sigLng = 36
bandSize = 1
limit = 3
limitSkip = 3
minCountSelection = 2
minCountPrefiltering = 1
maxSelect = 64
nextFactor = 4
contractBandMultiplicator = 0.3
extendBandMultiplicator = 0.3
extendFactor = 0.43
alignerMaxReturnedWindows = 1000
alignerMaxErrorLow = 4
alignerMaxClipLow = 0
alignerMaxErrorHigh = 10
alignerMaxClipHigh = 0
alignerMaxSelect = 16
alignerNextFactor = 2
variantProbabilityThreshold = 0.2
SUPERRANK
block size; Read Length; LSH build time (s); Search time per Read (ns); Time LSH per Read (ns); Time Aligner per Read (ns); LSH memory usage (GB); Correct Intersection Found; Correct Interval Found; Correct Alignment Found; Wrong Intervals per Read; Columns per Read; Extra alignment calculation factor; No Interval Found;
64-Bit-Block;100;176;44362;83535;2655772;8.83732;0.930965;0.919783;0.89706;15.1611;3965.13;39.6513;1.4e-05;
64-Bit-Block;125;177;22587;106402;665677;9.00884;0.958513;0.952456;0.92865;13.939;4526.44;36.2115;1e-06;
64-Bit-Block;150;183;27734;132577;769092;9.15635;0.972776;0.969248;0.9539;12.7908;4911.47;32.7431;0;
64-Bit-Block;175;190;31988;161624;853960;9.29302;0.980742;0.978271;0.96515;11.7274;5196.24;29.6928;0;
64-Bit-Block;200;197;38581;195354;990571;9.39407;0.985173;0.983214;0.96386;11.0435;5559.84;27.7992;0;
64-Bit-Block;250;212;50235;262640;1218252;9.63993;0.991334;0.989765;0.97772;9.41042;5908.6;23.6344;0;
64-Bit-Block;300;226;62009;335512;1372289;9.85696;0.995093;0.993632;0.97756;7.55379;5797.35;19.3245;0;
64-Bit-Block;350;239;74509;416607;1574915;10.0893;0.996898;0.995549;0.98508;6.00805;5527.61;15.7932;0;
64-Bit-Block;400;252;89324;505593;1748880;10.3029;0.997868;0.996523;0.98015;4.82144;5262.28;13.1557;0;
64-Bit-Block;500;286;120624;696941;2254309;10.7349;0.998778;0.997451;0.98794;3.19392;4777.49;9.55497;0;
32-Bit-Block;100;163;17280;80191;505147;7.90572;0.930965;0.919783;0.89706;15.1611;3965.13;39.6513;1.4e-05;
32-Bit-Block;125;171;21650;102941;629022;8.14046;0.958513;0.952456;0.92865;13.939;4526.44;36.2115;1e-06;
32-Bit-Block;150;178;27086;129463;766316;8.36687;0.972776;0.969248;0.9539;12.7908;4911.47;32.7431;0;
32-Bit-Block;175;187;32235;159211;862520;8.58984;0.980742;0.978271;0.96515;11.7274;5196.24;29.6928;0;
32-Bit-Block;200;193;37958;191280;991990;8.78462;0.985173;0.983214;0.96386;11.0435;5559.84;27.7992;0;
32-Bit-Block;250;209;49747;258160;1221020;9.22163;0.991334;0.989765;0.97772;9.41042;5908.6;23.6344;0;
32-Bit-Block;300;223;61045;331171;1354059;9.63804;0.995093;0.993632;0.97756;7.55379;5797.35;19.3245;0;
32-Bit-Block;350;241;74652;409974;1606917;10.0713;0.996898;0.995549;0.98508;6.00805;5527.61;15.7932;0;
32-Bit-Block;400;254;88575;498406;1753832;10.4895;0.997868;0.996523;0.98015;4.82144;5262.28;13.1557;0;
32-Bit-Block;500;280;122309;696505;2290519;11.3347;0.998778;0.997451;0.98794;3.19392;4777.49;9.55497;0;
16-Bit-Block;100;170;17426;80412;510165;8.03579;0.930965;0.919783;0.89706;15.1611;3965.13;39.6513;1.4e-05;
16-Bit-Block;125;173;21748;102936;633016;8.47025;0.958513;0.952456;0.92865;13.939;4526.44;36.2115;1e-06;
16-Bit-Block;150;182;27198;129432;774104;8.9012;0.972776;0.969248;0.9539;12.7908;4911.47;32.7431;0;
16-Bit-Block;175;191;32231;159070;863088;9.33035;0.980742;0.978271;0.96515;11.7274;5196.24;29.6928;0;
16-Bit-Block;200;196;38381;192762;991713;9.73389;0.985173;0.983214;0.96386;11.0435;5559.84;27.7992;0;
16-Bit-Block;250;214;50444;258630;1278494;10.588;0.991334;0.989765;0.97772;9.41042;5908.6;23.6344;0;
16-Bit-Block;300;231;63424;332485;1501350;11.424;0.995093;0.993632;0.97756;7.55379;5797.35;19.3245;0;
16-Bit-Block;350;248;79461;420449;1858438;12.2764;0.996898;0.995549;0.98508;6.00805;5527.61;15.7932;0;
16-Bit-Block;400;269;120830;673863;2503820;13.1152;0.997868;0.996523;0.98015;4.82144;5262.28;13.1557;0;
16-Bit-Block;500;327;4512611;32905598;26534552;14.8024;0.998778;0.997451;0.98794;3.19392;4777.49;9.55497;0;
8-Bit-Block;100;192;17463;80222;515782;9.38739;0.930965;0.919783;0.89706;15.1611;3965.13;39.6513;1.4e-05;
8-Bit-Block;125;171;22137;104428;634117;10.2405;0.958513;0.952456;0.92865;13.939;4526.44;36.2115;1e-06;
8-Bit-Block;150;180;28477;131074;773099;11.0916;0.972776;0.969248;0.9539;12.7908;4911.47;32.7431;0;
8-Bit-Block;175;189;33102;160581;876841;11.9413;0.980742;0.978271;0.96515;11.7274;5196.24;29.6928;0;
8-Bit-Block;200;201;43389;189209;1406758;12.7663;0.985173;0.983214;0.96386;11.0435;5559.84;27.7992;0;
8-Bit-Block;250;291;1000883;5365132;21268889;14.4628;0.991334;0.989765;0.97772;9.41042;5908.6;23.6344;0;
