Read length, with variants;;;;;;;;;;;;;;
q = 18;;;;;;;;;;;;;;
gapString = ################################################################;;;;;;;;;;;;;;
winSize = 140;;;;;;;;;;;;;;
winOff = 125;;;;;;;;;;;;;;
sigLng = 48;;;;;;;;;;;;;;
bandSize = 1;;;;;;;;;;;;;;
limit = 3;;;;;;;;;;;;;;
limitSkip = 8;;;;;;;;;;;;;;
minCount = 2;;;;;;;;;;;;;;
maxSelect = 64;;;;;;;;;;;;;;
nextFactor = 4;;;;;;;;;;;;;;
contractBandMultiplicator = 0.3;;;;;;;;;;;;;;
extendBandMultiplicator = 0.3;;;;;;;;;;;;;;
extendFactor = 0.43;;;;;;;;;;;;;;
maxReturnedWindows = 1000;;;;;;;;;;;;;;
ORIGINAL;;;;;;;;;;;;;;
Read Length; LSH build time (s); Search time per Read (ns); Time LSH per Read (ns); Time Aligner per Read (ns); LSH memory usage (GB); Correct Intersection Found; Correct Interval Found;Wrong Intervals per Read; Wrong Columns per Read; Extra alignment calculation factor; No Interval Found;;;
100;209;17951;103547;;12.8608;0.92503;0.9138;13.6799;3516.52;35.1652;0.00816;;;
150;202;22081;131053;;13.1108;0.96464;0.91033;12.2836;3221.26;21.4751;0.00119;;;
200;203;98976;702119;;13.6108;0.97808;0.88428;11.0364;3064.53;15.3226;0.00051;;;
300;201;96962;505780;;13.6108;0.99209;0.99038;7.68879;3702.88;12.3429;0;;;
500;195;154085;810047;;13.6108;0.99799;0.99653;3.1863;2265.35;4.53071;0;;;
;;;;;;;;;;;;;;
Q-GRAM-SIZE (64-bit q-grams, no gaps);;;;;;;;;;;;;;
q-gram size; Read Length; LSH build time (s); Search time per Read (ns); Time LSH per Read (ns); Time Aligner per Read (ns); LSH memory usage (GB); Correct Intersection Found; Correct Interval Found;Wrong Intervals per Read; Wrong Columns per Read; Extra alignment calculation factor; No Interval Found;;
14;100;188;41512;212172;;8.17358;0.93699;0.93103;30.6089;7657.55;76.5755;2.00E-05;;
15;100;190;27295;148285;;9.48446;0.93742;0.93031;24.1602;6123.98;61.2398;0;;
16;100;190;20855;116682;;10.8394;0.93674;0.92834;18.3761;4694.11;46.9411;6.00E-05;;
17;100;191;18118;99557;;12.4226;0.93243;0.9227;15.3488;3932.9;39.329;0.00184;;
18;100;195;58820;420611;;13.6108;0.92508;0.91386;13.6785;3516.15;35.1615;0.00816;;
19;100;203;120303;871725;;14.2365;0.91599;0.90368;12.7341;3282.21;32.8221;0.01834;;
20;100;216;207531;1587537;;14.5614;0.90598;0.89315;11.9531;3088.64;30.8864;0.02927;;
21;100;215;587268;4137830;;14.7333;0.89498;0.8813;11.2022;2902.42;29.0242;0.04057;;
22;100;223;273030;2099184;;14.8427;0.88034;0.86582;10.5996;2752.29;27.5229;0.05367;;
14;150;218;68752;349437;;8.45076;0.96744;0.96517;20.353;7323.54;48.8236;0;;
15;150;215;43975;246973;;9.78255;0.97003;0.96707;16.8865;6175.96;41.1731;0;;
16;150;216;40852;208369;;11.1814;0.97019;0.96726;14.6341;5405.68;36.0379;0;;
17;150;217;29794;168017;;12.8502;0.97068;0.96724;13.1487;4899.31;32.662;1.00E-05;;
18;150;223;305818;2327818;;14.1305;0.96884;0.96485;12.3834;4648.22;30.9881;0.00054;;
19;150;234;471090;3616558;;14.8292;0.96597;0.9616;11.8192;4472.68;29.8179;0.00192;;
20;150;245;905411;6328819;;15.2009;0.964;0.959;11.307;4320.14;28.801;0.00384;;
21;150;256;574360;3869629;;15.404;0.96139;0.95454;10.9525;4217.47;28.1165;0.00643;;
22;150;263;1331778;8539632;;15.5431;0.95688;0.94979;10.5115;4084.09;27.2273;0.00982;;
14;200;240;96869;493606;;8.70907;0.98287;0.98088;14.1474;6713.76;33.5688;0;;
15;200;234;61433;345483;;10.0449;0.98392;0.982;12.6668;6081.04;30.4052;0;;
16;200;235;49915;282112;;11.4582;0.98461;0.98285;11.821;5717.88;28.5894;0;;
17;200;239;42745;243017;;13.166;0.98516;0.9833;11.1707;5437.66;27.1883;0;;
18;200;244;377570;2856947;;14.4822;0.98449;0.98241;10.8153;5293.87;26.4694;1.00E-05;;
19;200;266;516661;3688877;;15.2056;0.98434;0.98206;10.4907;5165.97;25.8298;0.00016;;
20;200;280;1950631;15078035;;15.59;0.98324;0.98066;10.1997;5062.94;25.3147;0.00044;;
21;200;290;2723426;20604980;;15.7954;0.98233;0.97955;10.0188;5005.8;25.029;0.00085;;
22;200;311;3233601;23813424;;15.9384;0.98064;0.97746;9.78608;4930.64;24.6532;0.00178;;
14;300;281;163029;831923;;9.26567;0.99437;0.99241;8.14373;5947.6;19.8253;0;;
15;300;274;105323;592468;;10.612;0.99503;0.99333;7.95564;5809.79;19.366;0;;
16;300;277;86661;491295;;12.0399;0.99459;0.99307;7.76557;5666.92;18.8897;0;;
17;300;280;198201;1288438;;13.7851;0.99483;0.99331;7.64767;5586.98;18.6233;0;;
18;300;328;652516;4987559;;15.1336;0.99521;0.99381;7.647;5568.46;18.5615;0;;
19;300;352;4021541;31248231;;15.8857;0.99491;0.99344;7.60812;5543.44;18.4781;1.00E-05;;
20;300;390;4298714;31186787;;16.2859;0.99483;0.99343;7.58567;5549.68;18.4989;1.00E-05;;
21;300;420;4412801;32196430;;16.4919;0.99437;0.99302;7.62029;5587.32;18.6244;5.00E-05;;
22;300;429;4486904;31626466;;16.6452;0.99388;0.99243;7.5884;5583.95;18.6132;0.00011;;
14;500;367;313254;1606256;;10.3863;0.99884;0.99684;3.57526;5155.17;10.3103;0;;
15;500;354;205396;1162611;;11.7391;0.99891;0.99716;3.50167;4974.9;9.9498;0;;
16;500;358;173611;990003;;13.1784;0.99888;0.99717;3.51869;4896.57;9.79315;0;;
17;500;400;2118970;16410178;;14.9494;0.99867;0.99707;3.50536;4836.26;9.67251;0;;
18;500;440;8627213;60775998;;16.3287;0.99894;0.99739;3.53996;4737.16;9.47433;0;;
19;500;539;15474027;107356431;;17.1093;0.99881;0.99737;3.57941;4726.6;9.45321;0;;
20;500;572;19092586;130970740;;17.5186;0.99868;0.99736;3.63671;4740.44;9.48088;0;;
21;500;623;22249850;151813535;;17.7303;0.99872;0.99727;3.69981;4806.5;9.613;0;;
22;500;617;23712243;161429697;;17.8878;0.99862;0.99738;3.79043;4855.73;9.71147;0;;
;;;;;;;;;;;;;;
WINDOW-SIZE;;;;;;;;;;;;;;
window size factor; Read Length; LSH build time (s); Search time per Read (ns); Time LSH per Read (ns); Time Aligner per Read (ns); LSH memory usage (GB); Correct Intersection Found; Correct Interval Found;Wrong Intervals per Read; Wrong Columns per Read; Extra alignment calculation factor; No Interval Found;;
1.25;100;201;19850;99848;;13.712;0.90883;0.87099;14.0885;3237.2;32.372;0.01102;;
1.3;100;182;16794;94333;;13.6774;0.91614;0.89074;13.9438;3334.66;33.3466;0.00944;;
1.35;100;189;16898;93907;;13.6437;0.92118;0.90384;13.8248;3431.2;34.312;0.00862;;
1.4;100;195;16538;92691;;13.6108;0.92516;0.91396;13.6802;3516.65;35.1665;0.00815;;
1.45;100;202;16675;92255;;13.5498;0.92599;0.91992;13.6445;3544.8;35.448;0.00792;;
1.5;100;209;16353;91284;;13.4718;0.92438;0.92117;13.7032;3524.86;35.2486;0.00813;;
1.55;100;215;16281;91058;;13.3963;0.92219;0.92051;13.7115;3506.93;35.0693;0.00833;;
1.6;100;221;16021;89976;;13.3232;0.92078;0.91948;13.7295;3511.7;35.117;0.00855;;
1.25;150;214;1795687;13563342;;14.2824;0.96496;0.94934;12.7443;4461.79;29.7453;0.00076;;
1.3;150;228;372323;2822460;;14.2476;0.96736;0.95663;12.5108;4542.25;30.2817;0.00058;;
1.35;150;224;952571;6852375;;14.2086;0.96933;0.96229;12.2571;4626.07;30.8404;0.00055;;
1.4;150;225;71874;399831;;14.1305;0.96899;0.96499;12.3819;4647.72;30.9848;0.00054;;
1.45;150;229;114400;808916;;14.0361;0.96758;0.96519;12.6281;4680.16;31.2011;0.00055;;
1.5;150;234;28324;160333;;13.9564;0.96603;0.96456;12.7817;4718;31.4534;0.00057;;
1.55;150;243;27000;151518;;13.8685;0.96469;0.96362;12.9191;4780.46;31.8697;0.00059;;
1.6;150;250;26972;150849;;13.7941;0.96361;0.9627;13.0076;4845.13;32.3009;0.00065;;
1.25;200;252;910091;7052957;;14.6725;0.98354;0.9762;10.7993;5079.34;25.3967;4.00E-05;;
1.3;200;267;1284443;9788005;;14.6338;0.98454;0.97969;10.4975;5132.04;25.6602;3.00E-05;;
1.35;200;271;233413;1652715;;14.5779;0.98514;0.98199;10.3993;5190.71;25.9536;1.00E-05;;
1.4;200;262;1231839;9654437;;14.4822;0.98439;0.98233;10.817;5294.74;26.4737;1.00E-05;;
1.45;200;274;343848;2585546;;14.3901;0.98341;0.98205;11.1448;5402.56;27.0128;1.00E-05;;
1.5;200;274;1137463;8856186;;14.3013;0.98249;0.9815;11.4;5524.43;27.6221;1.00E-05;;
1.55;200;276;300695;2271629;;14.2158;0.98187;0.98091;11.579;5645.07;28.2254;1.00E-05;;
1.6;200;278;1019801;7880194;;14.1331;0.98118;0.9805;11.7008;5761.36;28.8068;1.00E-05;;
1.25;300;313;3107268;23625389;;15.3685;0.99489;0.99214;7.01625;5080.57;16.9352;0;;
1.3;300;340;3078565;24079960;;15.3281;0.99535;0.99335;6.68246;5029.12;16.7637;0;;
1.35;300;329;3238438;25538558;;15.2331;0.99537;0.99373;7.13686;5277.88;17.5929;0;;
1.4;300;329;3114679;24540133;;15.1336;0.99514;0.99374;7.64842;5569.14;18.5638;0;;
1.45;300;352;2927600;23002538;;15.0377;0.99486;0.99364;7.9827;5802.94;19.3431;0;;
1.5;300;350;2974673;23401830;;14.9455;0.99456;0.99367;8.23132;6021.99;20.0733;0;;
1.55;300;358;3071367;24123929;;14.8566;0.99434;0.99358;8.40075;6212.38;20.7079;0;;
1.6;300;361;2867527;22589482;;14.7709;0.99418;0.99373;8.52751;6390.9;21.303;0;;
1.25;500;473;23802038;167004516;;16.6008;0.9988;0.99638;2.97078;4015.01;8.03002;0;;
1.3;500;532;19828274;140034435;;16.5376;0.99902;0.99705;2.94362;4059.86;8.11973;0;;
1.35;500;549;19471866;136524224;;16.431;0.99909;0.99733;3.28401;4427.42;8.85483;0;;
1.4;500;533;18046214;128485013;;16.3287;0.99894;0.99739;3.54054;4737.68;9.47536;0;;
1.45;500;541;20541804;142400786;;16.2303;0.99894;0.99778;3.71174;4972.34;9.94467;0;;
1.5;500;588;24386885;164166027;;16.1356;0.9989;0.99798;3.82829;5177.3;10.3546;0;;
1.55;500;599;22596582;152817851;;16.0444;0.99881;0.99816;3.89191;5335.99;10.672;0;;
1.6;500;585;22786155;155033065;;15.9565;0.99864;0.99824;3.93665;5488.12;10.9762;0;;
;;;;;;;;;;;;;;
WINDOW-SIZE & OVERLAPPING;;;;;;;;;;;;;;
window size factor; window offset factor; band number; Read Length; LSH build time (s); Search time per Read (ns); Time LSH per Read (ns); Time Aligner per Read (ns); LSH memory usage (GB); Correct Intersection Found; Correct Interval Found;Wrong Intervals per Read; Wrong Columns per Read; Extra alignment calculation factor; No Interval Found
1;1;40;100;201;1167719;8064952;;13.9271;0.90605;0.79796;13.7756;2518.47;25.1847;0.01319
1.15;1;40;100;196;30248;192839;;13.8042;0.92508;0.89017;13.2671;2792.3;27.923;0.00964
1.25;1;40;100;206;48806;345850;;13.6414;0.92472;0.91339;13.2337;2912.62;29.1262;0.00959
1.35;1;40;100;222;14022;78164;;13.4695;0.92124;0.91862;13.2434;3009.35;30.0935;0.01008
1.5;1;40;100;246;13880;77193;;13.2335;0.91626;0.91534;13.2167;3177.66;31.7766;0.01133
1.25;1.25;50;100;206;554862;4286791;;14.241;0.91128;0.87443;14.0888;3240.8;32.408;0.00988
1.4;1.25;50;100;239;1654259;12420228;;14.1356;0.92765;0.91673;13.6762;3515.71;35.1571;0.0073
1.5;1.25;50;100;223;377807;2886325;;13.9907;0.92679;0.9238;13.6989;3521.36;35.2136;0.00736
1.6;1.25;50;100;229;1099699;7931139;;13.836;0.92288;0.9216;13.7428;3508.27;35.0827;0.00772
1.75;1.25;50;100;247;18687;114187;;13.6213;0.91883;0.91803;13.7595;3591.68;35.9168;0.00834
1.75;1.75;70;100;227;1340964;9786214;;14.7094;0.91981;0.91691;14.3217;4667.22;46.6722;0.00667
1.9;1.75;70;100;276;3164145;21787232;;14.6282;0.93075;0.92899;14.0184;4938.15;49.3815;0.00516
2;1.75;70;100;246;156537;1147017;;14.5118;0.92986;0.92816;14.0471;4761.48;47.6148;0.0052
2.1;1.75;70;100;264;2390876;17408850;;14.3855;0.92701;0.92529;14.1013;4552.64;45.5264;0.0055
2.25;1.75;70;100;266;420495;3270586;;14.2072;0.92328;0.9219;14.1424;4430.06;44.3006;0.00589
2.25;2.25;90;100;275;4564416;33047693;;15.0781;0.92598;0.92427;14.4242;6094.85;60.9485;0.0047
2.4;2.25;90;100;299;4809829;35335989;;15.0125;0.93383;0.93218;14.1877;6358.66;63.5866;0.00401
2.5;2.25;90;100;306;4806448;34746900;;14.9161;0.93322;0.93162;14.2214;6051.77;60.5177;0.00417
2.6;2.25;90;100;313;3390647;24529601;;14.8102;0.93065;0.92907;14.2647;5676.11;56.7611;0.00448
2.75;2.25;90;100;305;228087;1729878;;14.6593;0.92747;0.92593;14.3288;5366.66;53.6666;0.00472
1;1;40;150;173;20477;94831;;9.9969;0.94729;0.86687;13.2807;3692.34;24.6156;0.00512
1.15;1;40;150;188;16253;90386;;9.86888;0.95469;0.93366;12.7462;4049.09;26.9939;0.00358
1.25;1;40;150;204;16151;89540;;9.72983;0.95222;0.94608;12.8603;4291.59;28.6106;0.00377
1.35;1;40;150;221;16108;88926;;9.60196;0.94975;0.94848;12.9304;4517.22;30.1148;0.00412
1.5;1;40;150;244;15864;87729;;9.43104;0.94701;0.94648;12.918;4817.38;32.1159;0.00466
1.25;1.25;50;150;175;22695;115270;;10.1816;0.95101;0.92514;13.5075;4716.92;31.4461;0.00306
1.4;1.25;50;150;195;19299;107489;;10.0819;0.95694;0.9507;13.1614;5006.96;33.3797;0.00251
1.5;1.25;50;150;208;19008;106299;;9.96138;0.95458;0.95273;13.3485;5058.16;33.721;0.00272
1.6;1.25;50;150;222;19624;109403;;9.84907;0.95218;0.9512;13.4616;5168.34;34.4556;0.00291
1.75;1.25;50;150;242;21804;110125;;9.69052;0.94877;0.94826;13.5136;5388;35.92;0.00312
1.75;1.75;70;150;192;25345;141561;;10.5292;0.95587;0.95306;13.6838;6733.07;44.8871;0.00185
1.9;1.75;70;150;207;24885;138934;;10.4531;0.9601;0.95851;13.4558;6900.75;46.005;0.00138
2;1.75;70;150;218;24711;137359;;10.3588;0.95817;0.95668;13.6579;6620.49;44.1366;0.00146
2.1;1.75;70;150;227;24298;136106;;10.2695;0.9562;0.95481;13.8177;6495.14;43.301;0.00154
2.25;1.75;70;150;244;24084;133760;;10.1411;0.95301;0.95185;13.948;6487.49;43.25;0.00163
2.25;2.25;90;150;209;30182;169768;;10.8295;0.95984;0.95823;13.7269;8732.99;58.2199;0.00134
2.4;2.25;90;150;221;29852;167981;;10.7683;0.96273;0.96114;13.4963;8769.39;58.4626;0.00108
2.5;2.25;90;150;230;29410;165531;;10.6914;0.96103;0.95957;13.6892;8227.69;54.8513;0.00125
2.6;2.25;90;150;238;29198;163790;;10.6177;0.95878;0.95741;13.8295;7868.9;52.4593;0.00127
2.75;2.25;90;150;252;28878;162246;;10.5106;0.95561;0.95421;13.9911;7623.32;50.8221;0.00135
1;1;40;200;164;24221;103915;;7.9511;0.96365;0.90022;12.6569;4723.79;23.619;0.00235
1.15;1;40;200;189;17971;100573;;7.83276;0.96804;0.95308;12.2919;5215.54;26.0777;0.00171
1.25;1;40;200;205;17985;100103;;7.72246;0.96565;0.96152;12.4893;5607.8;28.039;0.00196
1.35;1;40;200;221;17770;99224;;7.62114;0.96354;0.96263;12.5325;5923.89;29.6194;0.00218
1.5;1;40;200;246;20586;104140;;7.48334;0.96055;0.96007;12.5201;6347.16;31.7358;0.00249
1.25;1.25;50;200;175;25079;127248;;8.11819;0.96791;0.94902;12.7915;5971.04;29.8552;0.00139
1.4;1.25;50;200;194;21212;118701;;8.01881;0.97085;0.96653;12.6183;6303.59;31.518;0.00105
1.5;1.25;50;200;208;20990;117614;;7.92445;0.96891;0.96749;12.8603;6486.61;32.433;0.00112
1.6;1.25;50;200;222;20789;116410;;7.83673;0.96671;0.96599;12.9885;6695.67;33.4784;0.00121
1.75;1.25;50;200;242;20461;114200;;7.71556;0.96434;0.96391;13.0397;7034.15;35.1707;0.00147
1.75;1.75;70;200;190;27453;154261;;8.41367;0.97198;0.96936;12.9627;8517.47;42.5873;0.00071
1.9;1.75;70;200;206;26850;151345;;8.3387;0.97353;0.9719;12.9016;8520.5;42.6025;0.00067
2;1.75;70;200;216;26654;150206;;8.26589;0.97175;0.97031;13.204;8326.49;41.6325;0.00077
2.1;1.75;70;200;227;26485;148979;;8.19688;0.96989;0.96866;13.3984;8281.73;41.4087;0.00069
2.25;1.75;70;200;243;30692;156025;;8.09997;0.96707;0.96602;13.5684;8371.81;41.859;0.00087
2.25;2.25;90;200;208;32994;186392;;8.68519;0.9738;0.97225;12.9302;10988;54.9402;0.0006
2.4;2.25;90;200;221;32651;183264;;8.62559;0.9748;0.97327;12.9036;10760.9;53.8047;0.00056
2.5;2.25;90;200;230;32348;181300;;8.56664;0.97312;0.97156;13.2069;10260.3;51.3016;0.00058
2.6;2.25;90;200;238;31958;179545;;8.51025;0.97205;0.97062;13.3983;9942.23;49.7111;0.0006
2.75;2.25;90;200;252;31162;176480;;8.43004;0.97;0.96868;13.6319;9793.4;48.967;0.00067
1;1;40;300;164;28925;122968;;5.84877;0.97981;0.93099;11.4332;6458.8;21.5293;0.00098
1.15;1;40;300;189;21428;120364;;5.75045;0.98071;0.97104;11.3507;7320.47;24.4016;0.0008
1.25;1;40;300;205;21298;119751;;5.67314;0.97959;0.97662;11.5559;7927.12;26.4237;0.00081
1.35;1;40;300;221;21242;119132;;5.60239;0.97814;0.97752;11.6442;8432.32;28.1077;0.00094
1.5;1;40;300;247;21153;118595;;5.5063;0.97671;0.97644;11.6726;9089.6;30.2987;0.00107
1.25;1.25;50;300;174;25011;141215;;5.98712;0.98242;0.96969;11.3699;8015.61;26.7187;0.00052
1.4;1.25;50;300;194;24817;140074;;5.90541;0.98345;0.98082;11.4303;8558.67;28.5289;0.00041
1.5;1.25;50;300;207;24804;139516;;5.8401;0.98225;0.98124;11.7655;9000.83;30.0028;0.00044
1.6;1.25;50;300;221;24660;138658;;5.77941;0.98085;0.98034;11.9225;9387.4;31.2913;0.00048
1.75;1.25;50;300;241;24482;137656;;5.69585;0.97954;0.97929;11.9771;9919.46;33.0649;0.00056
1.75;1.75;70;300;190;32010;181339;;6.2494;0.9846;0.98238;11.5397;11427.9;38.0931;0.00017
1.9;1.75;70;300;206;31674;179649;;6.18879;0.98467;0.98314;11.7999;11443.4;38.1448;0.0002
2;1.75;70;300;217;31510;178454;;6.13902;0.98367;0.98244;12.2145;11458;38.1934;0.00019
2.1;1.75;70;300;227;31407;177556;;6.09195;0.9825;0.98136;12.4971;11602.2;38.6741;0.00021
2.25;1.75;70;300;243;31049;175978;;6.0258;0.98031;0.97945;12.7473;11944.4;39.8147;0.00031
2.25;2.25;90;300;206;38483;219400;;6.5032;0.98578;0.984;11.391;14593.5;48.645;0.00015
2.4;2.25;90;300;220;37475;214133;;6.45514;0.98636;0.98455;11.6137;14175.4;47.2515;0.00013
2.5;2.25;90;300;229;37353;213415;;6.41507;0.98577;0.98404;12.0056;13830.5;46.1015;0.00014
2.6;2.25;90;300;238;37185;211496;;6.37679;0.98463;0.983;12.3087;13671.4;45.5715;0.00017
2.75;2.25;90;300;252;36831;210405;;6.32224;0.98296;0.98148;12.6146;13684.6;45.6152;0.00024
1;1;40;500;165;40928;171455;;4.12512;0.98881;0.95282;9.7245;9277.15;18.5543;0.00029
1.15;1;40;500;189;30023;169464;;4.05607;0.989;0.98276;9.96501;10893.3;21.7865;0.00021
1.25;1;40;500;206;36132;182737;;4.00804;0.98808;0.98646;10.177;11876.3;23.7525;0.0003
1.35;1;40;500;222;35966;181754;;3.96408;0.98745;0.9872;10.2488;12655.4;25.3108;0.00032
1.5;1;40;500;247;30031;169871;;3.90452;0.98635;0.9862;10.3088;13714.3;27.4285;0.00036
1.25;1.25;50;500;174;34763;197910;;4.24927;0.99072;0.98219;9.35019;11123.7;22.2473;0.00016
1.4;1.25;50;500;194;34553;196934;;4.19253;0.99089;0.98891;9.68572;12227.9;24.4558;0.00012
1.5;1.25;50;500;208;41316;209865;;4.15222;0.9901;0.98927;10.0305;13052.4;26.1048;0.00011
1.6;1.25;50;500;222;34231;194789;;4.11488;0.98955;0.98905;10.1986;13739.3;27.4786;0.00012
1.75;1.25;50;500;243;41131;208256;;4.06353;0.98845;0.98824;10.3401;14707.4;29.4149;0.00013
1.75;1.75;70;500;191;43855;251757;;4.49482;0.99192;0.99001;9.44073;15784.9;31.5698;3.00E-05
1.9;1.75;70;500;207;43343;248935;;4.45308;0.99196;0.99051;10.0051;16241.7;32.4833;3.00E-05
2;1.75;70;500;218;43743;250445;;4.4227;0.99144;0.99016;10.5596;16774.6;33.5493;5.00E-05
2.1;1.75;70;500;229;43255;246566;;4.39394;0.99073;0.98958;10.9085;17282.1;34.5641;6.00E-05
2.25;1.75;70;500;245;51736;262096;;4.35358;0.98973;0.98871;11.2948;18204.2;36.4084;6.00E-05
2.25;2.25;90;500;208;62824;318612;;4.73904;0.99227;0.99057;9.13807;19773.8;39.5475;5.00E-05
2.4;2.25;90;500;221;51022;291927;;4.70604;0.99245;0.99082;9.58213;19598.5;39.1971;3.00E-05
2.5;2.25;90;500;230;61957;314321;;4.68164;0.99243;0.99078;10.0418;19663;39.3261;3.00E-05
2.6;2.25;90;500;239;50827;292385;;4.6583;0.99188;0.99026;10.4055;19846.5;39.6931;4.00E-05
2.75;2.25;90;500;253;50335;290015;;4.62515;0.99107;0.98954;10.8724;20494.4;40.9887;5.00E-05
;;;;;;;;;;;;;;
BAND-NUMBER;;;;;;;;;;;;;;
band number factor; Read Length; LSH build time (s); Search time per Read (ns); Time LSH per Read (ns); Time Aligner per Read (ns); LSH memory usage (GB); Correct Intersection Found; Correct Interval Found;Wrong Intervals per Read; Wrong Columns per Read; Extra alignment calculation factor; No Interval Found;;
0.1;100;147;4017;22131;;3.62624;0.60075;0.57135;7.09444;1776.63;17.7663;0.2622;;
0.2;100;157;6885;38089;;6.25425;0.81842;0.7966;11.8953;3033.29;30.3329;0.07475;;
0.3;100;169;9973;55707;;8.88101;0.88667;0.87034;13.3255;3420.28;34.2028;0.02806;;
