Artifical Variants
ARTIFICAL VARIANTS
variant probability; addVariants; Read Length; LSH build time (s); Search time per Read (ns); Time LSH per Read (ns); Time Aligner per Read (ns); LSH memory usage (GB); Correct Intersection Found; Correct Interval Found; Correct Alignment Found; Wrong Intervals per Read; Columns per Read; Extra alignment calculation factor; No Interval Found;
0.1;0;100;199;27278;77527;627235;9.71932;0.92844;0.91645;0.8536;13.213;3483.79;34.8379;0.00044;
0.1;0;150;169;29726;77831;843099;6.82439;0.95662;0.94904;0.8831;12.7278;4974.06;33.1604;3e-05;
0.1;0;200;168;40804;89323;1312956;5.31298;0.96728;0.96146;0.8986;12.4961;6476.68;32.3834;2e-05;
0.1;0;300;168;65640;113517;2346160;3.79029;0.98028;0.97621;0.9439;11.3872;8915.57;29.7186;0;
0.1;0;500;170;111297;170583;4304977;2.55551;0.98848;0.98579;0.9531;9.97804;13230.1;26.4601;0;
0.1;1;100;193;28342;72126;618897;9.74025;0.91731;0.90447;0.9189;13.7494;3623.58;36.2358;0.00048;
0.1;1;150;189;31844;78753;907036;6.83858;0.94886;0.94052;0.934;13.37;5233.89;34.8926;8e-05;
0.1;1;200;188;43934;90441;1393934;5.32361;0.96131;0.95484;0.9456;13.076;6797.95;33.9897;3e-05;
0.1;1;300;190;69508;112452;2443790;3.79737;0.97577;0.9711;0.9719;12.1555;9538.35;31.7945;0;
0.1;1;500;192;128520;165549;5333174;2.55987;0.98484;0.98143;0.9676;10.9818;14555.8;29.1115;0;
