Fast test
q = 18
gapString = ################################################################
winSize = 140
winOff = 125
sigLng = 36
bandSize = 1
limit = 3
limitSkip = 8
minCountSelection = 2
minCountPrefiltering = 1
maxSelect = 64
nextFactor = 4
contractBandMultiplicator = 0.15
extendBandMultiplicator = 0.3
extendFactor = 0.43
maxReturnedWindows = 1000
ORIGINAL
Read Length; LSH build time (s); Search time per Read (ns); Time LSH per Read (ns); Time Aligner per Read (ns); LSH memory usage (GB); Correct Intersection Found; Correct Interval Found; Correct Alignment FoundWrong Intervals per Read; Columns per Read; Extra alignment calculation factor; No Interval Found;
100;181;85757;46338;380450;9.70418;0.9014;0.8866;0.842;13.7268;3614.36;36.1436;0.0017;

DEFAULT
band number factor; Read Length; LSH build time (s); Search time per Read (ns); Time LSH per Read (ns); Time Aligner per Read (ns); LSH memory usage (GB); Correct Intersection Found; Correct Interval Found; Correct Alignment FoundWrong Intervals per Read; Columns per Read; Extra alignment calculation factor; No Interval Found;
0.18;100;157;83360;24441;579798;4.9771;0.8177;0.7904;0.798;11.8301;3102.74;31.0274;0.0077;

64-Bit-Bands (CFBHT)
band number factor; Read Length; LSH build time (s); Search time per Read (ns); Time LSH per Read (ns); Time Aligner per Read (ns); LSH memory usage (GB); Correct Intersection Found; Correct Interval Found; Correct Alignment FoundWrong Intervals per Read; Columns per Read; Extra alignment calculation factor; No Interval Found;
0.18;100;154;66267;23980;409129;10.913;0.8192;0.7916;0.78;11.82;3100.52;31.0052;0.0096;

ALIGNER-OPTIONS
max-error; Read Length; LSH build time (s); Search time per Read (ns); Time LSH per Read (ns); Time Aligner per Read (ns); LSH memory usage (GB); Correct Intersection Found; Correct Interval Found; Correct Alignment FoundWrong Intervals per Read; Columns per Read; Extra alignment calculation factor; No Interval Found;
0.03;0;0.1;0.2;16;2;100;181;560533;46488;513104;9.70419;0.9012;0.8863;0.86;13.7274;3614.45;36.1445;0.0017;
0.04;0;0.1;0.2;16;2;100;;495653;46615;447904;9.70419;0.9012;0.8863;0.8643;13.7274;3614.45;36.1445;0.0017;
0.05;0;0.1;0.2;16;2;100;;457295;46354;410056;9.70419;0.9012;0.8863;0.8653;13.7274;3614.45;36.1445;0.0017;
0.04;0;0.08;0.2;16;2;100;;471760;46298;424335;9.70419;0.9012;0.8863;0.8659;13.7274;3614.45;36.1445;0.0017;
0.04;0;0.1;0.2;16;2;100;;499171;50464;447801;9.70419;0.9012;0.8863;0.8643;13.7274;3614.45;36.1445;0.0017;
0.04;0;0.12;0.2;16;2;100;;511756;46521;464139;9.70419;0.9012;0.8863;0.8638;13.7274;3614.45;36.1445;0.0017;
0.04;0;0.1;0;16;2;100;;387117;46790;339410;9.70419;0.9012;0.8863;0.8666;13.7274;3614.45;36.1445;0.0017;
0.04;0;0.1;0.1;16;2;100;;592897;46293;545480;9.70419;0.9012;0.8863;0.8683;13.7274;3614.45;36.1445;0.0017;
0.04;0;0.1;0.2;16;2;100;;494351;46412;447021;9.70419;0.9012;0.8863;0.8643;13.7274;3614.45;36.1445;0.0017;
0.04;0;0.1;0.2;4;2;100;;503514;46743;455704;9.70419;0.9012;0.8863;0.863;13.7274;3614.45;36.1445;0.0017;
0.04;0;0.1;0.2;8;2;100;;491307;47253;443171;9.70419;0.9012;0.8863;0.8638;13.7274;3614.45;36.1445;0.0017;
0.04;0;0.1;0.2;16;2;100;;494085;46392;446717;9.70419;0.9012;0.8863;0.8643;13.7274;3614.45;36.1445;0.0017;
0.04;0;0.1;0.2;32;2;100;;521198;46498;473794;9.70419;0.9012;0.8863;0.8653;13.7274;3614.45;36.1445;0.0017;
0.04;0;0.1;0.2;16;1.5;100;;469939;46459;422263;9.70419;0.9012;0.8863;0.8661;13.7274;3614.45;36.1445;0.0017;
0.04;0;0.1;0.2;16;2;100;;497907;46532;450292;9.70419;0.9012;0.8863;0.8643;13.7274;3614.45;36.1445;0.0017;
0.04;0;0.1;0.2;16;2.5;100;;514349;46268;466957;9.70419;0.9012;0.8863;0.8632;13.7274;3614.45;36.1445;0.0017;

VARIANT-PROBABILITY-THRESHOLD
variant probability threshold; Read Length; LSH build time (s); Search time per Read (ns); Time LSH per Read (ns); Time Aligner per Read (ns); LSH memory usage (GB); Correct Intersection Found; Correct Interval Found; Correct Alignment FoundWrong Intervals per Read; Columns per Read; Extra alignment calculation factor; No Interval Found;
0;100;188;746266;418150;2023748;9.70418;0.9015;0.8866;0.866;13.7271;3614.53;36.1453;0.0017;
0.1;100;179;123458;67115;524245;9.70923;0.9062;0.8918;0.877;13.6356;3590.12;35.9012;0.0016;
0.2;100;175;102235;48436;426767;9.70975;0.9062;0.8917;0.859;13.6363;3590.14;35.9014;0.0016;
0.3;100;174;87198;47869;383587;9.71013;0.9068;0.8925;0.872;13.6352;3589.56;35.8956;0.0016;
0.4;100;174;91827;47941;429318;9.71045;0.9064;0.892;0.859;13.6341;3589.08;35.8908;0.0016;
0.45;100;174;95746;48215;466014;9.7106;0.9059;0.8914;0.82;13.6359;3589.43;35.8943;0.0016;
0.5;100;174;271405;51159;468161;9.71075;0.9056;0.8911;0.909;13.6384;3590.11;35.9011;0.0016;

Q-GRAM-SIZE (64-bit q-grams, no gaps)
q-gram size; Read Length; LSH build time (s); Search time per Read (ns); Time LSH per Read (ns); Time Aligner per Read (ns); LSH memory usage (GB); Correct Intersection Found; Correct Interval Found; Correct Alignment FoundWrong Intervals per Read; Columns per Read; Extra alignment calculation factor; No Interval Found;
14;100;172;215838;108074;1064916;5.63201;0.9196;0.9124;0.909;35.2669;8924.77;89.2477;0;
15;100;175;156113;79728;751737;6.61062;0.9241;0.9148;0.947;26.5808;6820.63;68.2063;0;
16;100;176;122514;64808;565704;7.63193;0.9152;0.9054;0.868;19.3396;5022.68;50.2268;0;
17;100;177;103279;54651;475913;8.81712;0.9084;0.8961;0.877;15.762;4121.48;41.2148;0.0001;
18;100;181;95569;48934;456715;9.70419;0.9009;0.886;0.872;13.7278;3614.63;36.1463;0.0017;
19;100;185;89098;45627;425895;10.1771;0.8991;0.8841;0.845;12.774;3377.38;33.7738;0.0053;
20;100;188;76518;42510;331942;10.4227;0.8974;0.8804;0.832;11.9718;3179.22;31.7922;0.0118;
21;100;191;75686;40215;346741;10.5485;0.8852;0.8694;0.834;11.2125;2990.03;29.9003;0.0218;
22;100;195;78831;38723;393233;10.6349;0.8771;0.8583;0.848;10.5506;2824.12;28.2412;0.0297;

Q-GRAM-SIZE (middle gap)
q-gram size; Read Length; LSH build time (s); Search time per Read (ns); Time LSH per Read (ns); Time Aligner per Read (ns); LSH memory usage (GB); Correct Intersection Found; Correct Interval Found; Correct Alignment FoundWrong Intervals per Read; Columns per Read; Extra alignment calculation factor; No Interval Found;
15;100;173;198025;103962;928584;5.68794;0.9193;0.911;0.881;32.4798;8298.26;82.9826;0;
16;100;176;146160;77280;676371;6.65714;0.9204;0.9097;0.868;24.2874;6277.89;62.7789;0;
17;100;178;122935;63599;580878;7.69734;0.9152;0.9032;0.856;18.0602;4708.2;47.082;0;
18;100;181;95603;52763;417699;8.88259;0.9072;0.895;0.819;15.0312;3945.46;39.4546;0;
19;100;184;101371;47375;530757;9.75242;0.9009;0.8853;0.837;13.2975;3511.37;35.1137;0.0018;
20;100;187;80321;44333;351631;10.2104;0.9027;0.8866;0.844;12.2081;3242.22;32.4222;0.0053;
21;100;190;77558;41687;350019;10.4418;0.8952;0.8794;0.865;11.5604;3081.24;30.8124;0.0115;
22;100;194;69831;38628;303452;10.5659;0.8911;0.8735;0.851;10.8064;2894.92;28.9492;0.0167;
23;100;200;77628;37090;396990;10.6466;0.8819;0.8616;0.844;10.1933;2740.82;27.4082;0.0241;

Q-GRAM-SIZE (single gap left: #[5]-#[q-6])
q-gram size; Read Length; LSH build time (s); Search time per Read (ns); Time LSH per Read (ns); Time Aligner per Read (ns); LSH memory usage (GB); Correct Intersection Found; Correct Interval Found; Correct Alignment FoundWrong Intervals per Read; Columns per Read; Extra alignment calculation factor; No Interval Found;
15;100;173;186552;99537;858141;5.68865;0.9218;0.914;0.882;32.6341;8336.84;83.3684;0;
16;100;175;152041;74216;766379;6.66282;0.9224;0.9129;0.913;24.1583;6247.69;62.4769;0;
17;100;178;112449;60327;508963;7.6954;0.9153;0.905;0.844;18.1307;4725.5;47.255;0;
18;100;180;95195;51186;430516;8.88094;0.909;0.8939;0.859;14.7974;3885.91;38.8591;0.0002;
19;100;184;86103;46993;381912;9.75232;0.9051;0.8919;0.814;13.2933;3509.87;35.0987;0.0015;
20;100;188;77810;43522;334411;10.2071;0.9013;0.8871;0.904;12.4434;3299.52;32.9952;0.0073;
21;100;191;80153;40216;391265;10.4376;0.8967;0.8793;0.85;11.6673;3108.56;31.0856;0.0117;
22;100;194;73645;38979;338048;10.5629;0.8902;0.8722;0.818;10.8042;2892.94;28.9294;0.0165;
23;100;200;80577;36452;432903;10.6461;0.8779;0.8602;0.86;10.2834;2763.23;27.6323;0.0265;

MIN-COUNT
min count; Read Length; LSH build time (s); Search time per Read (ns); Time LSH per Read (ns); Time Aligner per Read (ns); LSH memory usage (GB); Correct Intersection Found; Correct Interval Found; Correct Alignment FoundWrong Intervals per Read; Columns per Read; Extra alignment calculation factor; No Interval Found;
1;100;180;129955;72447;564575;8.88094;0.9317;0.9231;0.864;17.1651;4478.37;44.7837;0.0002;
2;100;;101408;50382;495200;8.88094;0.9091;0.8939;0.911;14.7979;3885.96;38.8596;0.0002;
3;100;;86157;44968;398190;8.88094;0.872;0.8532;0.834;11.3151;3010.42;30.1042;0.0002;
4;100;;68601;42943;242710;8.88094;0.8168;0.797;0.83;6.9656;1909.89;19.0989;0.0002;
5;100;;56999;41938;137099;8.88094;0.7457;0.7263;0.712;3.9237;1136.75;11.3675;0.0002;
6;100;;53251;41198;108088;8.88094;0.6663;0.6481;0.661;2.162;682.917;6.82917;0.0002;

MIN-COUNT
min count (selection);min count (prefiltering); Read Length; LSH build time (s); Search time per Read (ns); Time LSH per Read (ns); Time Aligner per Read (ns); LSH memory usage (GB); Correct Intersection Found; Correct Interval Found; Correct Alignment FoundWrong Intervals per Read; Columns per Read; Extra alignment calculation factor; No Interval Found;
1;1;100;181;129424;72688;556821;8.88094;0.9328;0.9241;0.88;17.1649;4478.53;44.7853;0.0002;
1;2;100;;137657;76506;597112;8.88094;0.9328;0.9241;0.846;17.1649;4478.53;44.7853;0.0002;
1;3;100;;136933;76923;585924;8.88094;0.9328;0.9241;0.912;17.1649;4478.53;44.7853;0.0002;
2;1;100;;103748;51344;510049;8.88094;0.9095;0.8943;0.831;14.798;3886.09;38.8609;0.0002;
2;2;100;;99655;51334;468293;8.88094;0.9095;0.8943;0.888;14.798;3886.09;38.8609;0.0002;
2;3;100;;115712;50706;634526;8.88094;0.9095;0.8943;0.865;14.798;3886.09;38.8609;0.0002;
3;1;100;;90045;45218;434575;8.88094;0.8724;0.8536;0.874;11.3184;3011.41;30.1141;0.0002;
3;2;100;;94605;44891;485468;8.88094;0.8724;0.8536;0.861;11.3184;3011.41;30.1141;0.0002;
3;3;100;;87641;44986;413147;8.88094;0.8724;0.8536;0.819;11.3184;3011.41;30.1141;0.0002;
4;1;100;;64434;42563;206352;8.88094;0.8164;0.7967;0.726;6.9654;1909.76;19.0976;0.0002;
4;2;100;;67260;42497;234358;8.88094;0.8164;0.7967;0.776;6.9654;1909.76;19.0976;0.0002;
4;3;100;;61820;42578;180688;8.88094;0.8164;0.7967;0.783;6.9654;1909.76;19.0976;0.0002;
5;1;100;;58373;41808;153389;8.88094;0.7456;0.7263;0.79;3.9247;1136.97;11.3697;0.0002;
5;2;100;;58137;42096;147038;8.88094;0.7456;0.7263;0.747;3.9247;1136.97;11.3697;0.0002;
5;3;100;;64779;41501;219157;8.88094;0.7456;0.7263;0.757;3.9247;1136.97;11.3697;0.0002;
6;1;100;;54545;40974;122871;8.88094;0.6662;0.6481;0.658;2.1622;682.937;6.82937;0.0002;
6;2;100;;52819;41375;102812;8.88094;0.6662;0.6481;0.598;2.1622;682.937;6.82937;0.0002;
6;3;100;;52386;41205;98462;8.88094;0.6662;0.6481;0.637;2.1622;682.937;6.82937;0.0002;

MAX-SELECT & NEXT-FACTOR
max select; next factor; Read Length; LSH build time (s); Search time per Read (ns); Time LSH per Read (ns); Time Aligner per Read (ns); LSH memory usage (GB); Correct Intersection Found; Correct Interval Found; Correct Alignment FoundWrong Intervals per Read; Columns per Read; Extra alignment calculation factor; No Interval Found;
8;2;100;181;65112;48252;159597;8.88093;0.8798;0.8662;0.883;1.8796;657.407;6.57407;0.0002;
8;2.5;100;;76492;48342;268293;8.88093;0.8808;0.8672;0.843;2.1837;733.689;7.33689;0.0002;
8;3;100;;66477;48529;166027;8.88093;0.8809;0.8673;0.855;2.507;814.869;8.14869;0.0002;
8;3.5;100;;65419;48560;156720;8.88093;0.881;0.8674;0.816;2.7467;875.18;8.7518;0.0002;
8;4;100;;65577;48241;162827;8.88093;0.881;0.8674;0.868;2.9935;937.472;9.37472;0.0002;
8;5;100;;66545;48211;169742;8.88093;0.8811;0.8675;0.819;3.3925;1038.48;10.3848;0.0002;
8;6;100;;77893;48535;281609;8.88093;0.8811;0.8675;0.852;3.6824;1111.89;11.1189;0.0002;
8;8;100;;67994;48933;176904;8.88093;0.8811;0.8675;0.847;4.0255;1198.93;11.9893;0.0002;
16;2;100;;70538;48197;211088;8.88093;0.89;0.8757;0.87;3.2328;994.26;9.9426;0.0002;
16;2.5;100;;73200;48642;231271;8.88093;0.8913;0.877;0.862;3.7824;1131.89;11.3189;0.0002;
16;3;100;;71833;48458;223957;8.88093;0.8915;0.8772;0.888;4.3235;1267.68;12.6768;0.0002;
16;3.5;100;;78086;48574;285182;8.88093;0.8916;0.8773;0.841;4.7076;1364.13;13.6413;0.0002;
16;4;100;;84443;48638;348007;8.88093;0.8916;0.8773;0.884;5.0852;1459.32;14.5932;0.0002;
16;5;100;;79071;48703;293538;8.88093;0.8917;0.8774;0.882;5.7268;1621.55;16.2155;0.0002;
16;6;100;;70117;48778;203230;8.88093;0.8917;0.8774;0.852;6.1569;1730.46;17.3046;0.0002;
16;8;100;;73723;49024;236591;8.88093;0.8917;0.8774;0.873;6.6872;1864.96;18.6496;0.0002;
32;2;100;;87533;48431;381251;8.88093;0.8978;0.8832;0.913;5.4318;1541.26;15.4126;0.0002;
32;2.5;100;;78575;48643;289495;8.88093;0.8994;0.8848;0.883;6.4668;1800.23;18.0023;0.0002;
32;3;100;;87114;48875;372615;8.88093;0.8997;0.8851;0.842;7.4349;2043.03;20.4303;0.0002;
32;3.5;100;;80823;49009;308835;8.88093;0.8999;0.8853;0.863;8.0639;2201.02;22.0102;0.0002;
32;4;100;;81513;49043;314448;8.88093;0.8999;0.8853;0.857;8.6402;2346.31;23.4631;0.0002;
32;5;100;;86711;49299;364004;8.88093;0.9001;0.8855;0.884;9.6591;2603.78;26.0378;0.0002;
32;6;100;;91667;49423;412547;8.88093;0.9001;0.8855;0.882;10.3059;2767.46;27.6746;0.0002;
32;8;100;;80827;49587;302374;8.88093;0.9001;0.8855;0.864;11.0995;2968.73;29.6873;0.0002;
64;2;100;;87998;48962;380457;8.88093;0.9059;0.8909;0.898;8.7547;2369.36;23.6936;0.0002;
64;2.5;100;;95555;49227;453386;8.88093;0.9084;0.8933;0.894;10.8708;2899.18;28.9918;0.0002;
64;3;100;;93357;49454;428733;8.88093;0.9088;0.8937;0.808;12.7105;3360.9;33.609;0.0002;
64;3.5;100;;90245;49613;396143;8.88093;0.909;0.8939;0.859;13.8156;3638.59;36.3859;0.0002;
64;4;100;;107006;49733;563015;8.88093;0.909;0.8939;0.854;14.7966;3885.83;38.8583;0.0002;
64;5;100;;99613;49842;486596;8.88093;0.9092;0.8941;0.85;16.4855;4312.53;43.1253;0.0002;
64;6;100;;105380;51346;526192;8.88093;0.9092;0.8941;0.833;17.5214;4574.69;45.7469;0.0002;
64;8;100;;100139;50622;485140;8.88093;0.9092;0.8941;0.894;18.7362;4882.77;48.8277;0.0002;
128;2;100;;98530;49241;483513;8.88093;0.9108;0.8955;0.908;13.2992;3505.04;35.0504;0.0002;
128;2.5;100;;106659;49609;560154;8.88093;0.9157;0.9003;0.882;17.5916;4580.52;45.8052;0.0002;
128;3;100;;114899;50044;638537;8.88093;0.9169;0.9013;0.859;21.39;5535.15;55.3515;0.0002;
128;3.5;100;;111823;50388;604435;8.88093;0.9173;0.9017;0.919;23.5209;6071.75;60.7175;0.0002;
128;4;100;;123407;50577;718102;8.88093;0.9175;0.9019;0.856;25.3377;6529.84;65.2984;0.0002;
128;5;100;;118435;50960;664222;8.88093;0.9178;0.9022;0.905;28.1971;7252.65;72.5265;0.0002;
128;6;100;;119884;51120;676697;8.88093;0.9178;0.9022;0.884;29.9613;7699.01;76.9901;0.0002;
128;8;100;;127200;52470;736265;8.88093;0.9179;0.9023;0.808;31.9137;8194.18;81.9418;0.0002;
256;2;100;;106140;50336;543080;8.88093;0.9153;0.9;0.878;18.4864;4805.99;48.0599;0.0002;
256;2.5;100;;133483;51345;807772;8.88093;0.9221;0.9065;0.926;26.5389;6827.63;68.2763;0.0002;
256;3;100;;143776;51687;905702;8.88093;0.9244;0.9086;0.875;34.5081;8833.14;88.3314;0.0002;
256;3.5;100;;171599;51948;1185505;8.88093;0.9253;0.9095;0.911;38.7924;9914.08;99.1408;0.0002;
256;4;100;;164400;52265;1109778;8.88093;0.9257;0.9099;0.901;42.4901;10847.4;108.474;0.0002;
256;5;100;;156099;53909;1004818;8.88093;0.926;0.9102;0.853;47.5909;12137.6;121.376;0.0002;
256;6;100;;147939;53820;927013;8.88093;0.9261;0.9103;0.869;50.6226;12905.2;129.052;0.0002;
256;8;100;;156755;54437;1006071;8.88093;0.9262;0.9104;0.866;53.8829;13732;137.321;0.0002;

LIMIT & LIMIT-SKIP
limit; limit-skip; Read Length; LSH build time (s); Search time per Read (ns); Time LSH per Read (ns); Time Aligner per Read (ns); LSH memory usage (GB); Correct Intersection Found; Correct Interval Found; Correct Alignment FoundWrong Intervals per Read; Columns per Read; Extra alignment calculation factor; No Interval Found;
1;1;100;160;90248;50521;387365;8.96573;0.9197;0.9045;0.905;14.4817;3801.2;38.012;0.0001;
1;2;100;177;92971;50033;418381;8.91689;0.9158;0.9012;0.879;14.6516;3848.01;38.4801;0.0001;
1;3;100;177;115333;49705;645541;8.91664;0.9147;0.9;0.863;14.6462;3846.41;38.4641;0.0002;
1;5;100;177;93290;49520;427140;8.91656;0.9148;0.9005;0.836;14.6381;3844.28;38.4428;0.0002;
1;7;100;177;93776;49431;433622;8.91655;0.914;0.8994;0.823;14.6046;3835.67;38.3567;0.0001;
1;10;100;178;96849;49209;466227;8.91657;0.9156;0.9012;0.909;14.6475;3846.91;38.4691;0.0001;
1;15;100;177;115263;48864;653327;8.91661;0.9145;0.9003;0.932;14.6425;3846.22;38.4622;0.0001;
1;20;100;178;107783;48551;581833;8.91662;0.9148;0.8999;0.888;14.6382;3844.49;38.4449;0.0001;
2;2;100;179;93873;48405;444755;8.88163;0.9095;0.8942;0.846;14.8006;3886.49;38.8649;0.0002;
2;3;100;180;105194;48385;558239;8.88126;0.9092;0.8939;0.875;14.7989;3886.04;38.8604;0.0002;
2;5;100;180;90789;48180;415649;8.88109;0.9088;0.8937;0.897;14.7986;3886.06;38.8606;0.0002;
2;7;100;179;103567;48299;542607;8.8811;0.9094;0.8943;0.889;14.798;3886.08;38.8608;0.0002;
2;10;100;179;97406;48211;481807;8.88111;0.9095;0.8942;0.874;14.796;3885.48;38.8548;0.0002;
2;15;100;180;94118;48383;447518;8.88111;0.909;0.8939;0.839;14.7987;3886.15;38.8615;0.0002;
2;20;100;180;100933;48530;514227;8.88111;0.9095;0.8943;0.902;14.7963;3885.64;38.8564;0.0002;
3;3;100;180;104971;48571;554140;8.88113;0.9093;0.8941;0.882;14.7988;3886.13;38.8613;0.0002;
3;5;100;179;94530;48513;450110;8.88093;0.9094;0.8942;0.844;14.7956;3885.57;38.8557;0.0002;
3;7;100;180;96880;48634;472736;8.88093;0.909;0.8939;0.835;14.7969;3885.7;38.857;0.0002;
3;10;100;180;113900;48993;638724;8.88094;0.9096;0.8945;0.922;14.7976;3886.06;38.8606;0.0002;
3;15;100;180;102846;48726;530374;8.88093;0.9087;0.8934;0.826;14.7982;3885.82;38.8582;0.0002;
3;20;100;180;110966;48903;610480;8.88094;0.909;0.8937;0.836;14.7976;3885.84;38.8584;0.0002;
5;5;100;180;104461;48748;547044;8.8809;0.9093;0.8942;0.859;14.7973;3885.81;38.8581;0.0002;
5;7;100;179;102692;48745;529556;8.8809;0.9096;0.8945;0.902;14.7966;3885.72;38.8572;0.0002;
5;10;100;180;91280;48719;415689;8.88091;0.9094;0.8943;0.877;14.7973;3885.84;38.8584;0.0002;
5;15;100;180;107013;48390;576743;8.88092;0.9092;0.8941;0.901;14.7977;3885.94;38.8594;0.0002;
5;20;100;180;95898;48802;461169;8.88092;0.9093;0.8942;0.838;14.7974;3885.82;38.8582;0.0002;
7;7;100;180;104030;48446;545706;8.8809;0.9096;0.8945;0.885;14.7966;3885.77;38.8577;0.0002;
7;10;100;180;96950;48772;471976;8.88092;0.9096;0.8945;0.9;14.797;3885.84;38.8584;0.0002;
7;15;100;180;103974;48722;542735;8.88092;0.9095;0.8944;0.86;14.7971;3885.84;38.8584;0.0002;
7;20;100;180;111902;48852;620309;8.88092;0.9095;0.8944;0.836;14.7969;3885.77;38.8577;0.0002;
10;10;100;180;84598;48741;348668;8.88092;0.9096;0.8945;0.824;14.797;3885.86;38.8586;0.0002;
10;15;100;180;92081;48782;423131;8.88092;0.9096;0.8945;0.882;14.797;3885.82;38.8582;0.0002;
10;20;100;180;88774;48702;390608;8.88092;0.9096;0.8945;0.874;14.797;3885.82;38.8582;0.0002;

EXTEND-NUMBER & EXTEND-BAND-MULTIPLICATOR
extend-number; extend-band-multiplicator; Read Length; LSH build time (s); Search time per Read (ns); Time LSH per Read (ns); Time Aligner per Read (ns); LSH memory usage (GB); Correct Intersection Found; Correct Interval Found; Correct Alignment FoundWrong Intervals per Read; Columns per Read; Extra alignment calculation factor; No Interval Found;
0;0;100;181;88106;48495;386013;8.88094;0.9089;0.5485;0.616;14.7974;2237.17;22.3717;0.0002;
0;0.15;100;;86789;48398;374731;8.88094;0.9089;0.5485;0.586;14.7974;2237.17;22.3717;0.0002;
0;0.3;100;;82283;49133;318138;8.88094;0.9089;0.5485;0.619;14.7974;2237.17;22.3717;0.0002;
0;0.45;100;;92862;48857;428407;8.88094;0.9089;0.5485;0.585;14.7974;2237.17;22.3717;0.0002;
0.15;0;100;;82192;49559;315188;8.88094;0.9089;0.7812;0.812;14.7974;2867.15;28.6715;0.0002;
0.15;0.15;100;;93219;48513;432588;8.88094;0.9089;0.7396;0.759;14.7974;2782.62;27.8262;0.0002;
0.15;0.3;100;;99871;49118;493901;8.88094;0.9089;0.6752;0.633;14.7974;2715.11;27.1511;0.0002;
0.15;0.45;100;;91254;49324;408032;8.88094;0.9089;0.6247;0.665;14.7974;2648.92;26.4892;0.0002;
0.3;0;100;;88942;48912;387098;8.88094;0.9089;0.8728;0.86;14.7974;3497.13;34.9713;0.0002;
0.3;0.15;100;;94467;48817;444968;8.88094;0.9089;0.8588;0.842;14.7974;3412.6;34.126;0.0002;
0.3;0.3;100;;86539;48754;365953;8.88094;0.9089;0.8444;0.835;14.7974;3344.64;33.4464;0.0002;
0.3;0.45;100;;92287;48849;420247;8.88094;0.9089;0.8133;0.839;14.7974;3275.43;32.7543;0.0002;
0.45;0;100;;96201;48508;465793;8.88094;0.9089;0.9025;0.893;14.7974;4127.12;41.2712;0.0002;
0.45;0.15;100;;93297;48454;437380;8.88094;0.9089;0.9007;0.889;14.7974;4042.59;40.4259;0.0002;
0.45;0.3;100;;93259;48650;431701;8.88094;0.9089;0.8984;0.89;14.7974;3974.62;39.7462;0.0002;
0.45;0.45;100;;96937;48590;472158;8.88094;0.9089;0.8932;0.886;14.7974;3905.35;39.0535;0.0002;
0.6;0;100;;100993;48450;510995;8.88094;0.9089;0.9071;0.855;14.7974;4757.1;47.571;0.0002;
0.6;0.15;100;;109347;49498;586675;8.88094;0.9089;0.9071;0.92;14.7974;4672.57;46.7257;0.0002;
0.6;0.3;100;;100751;48769;508936;8.88094;0.9089;0.9071;0.87;14.7974;4604.6;46.046;0.0002;
0.6;0.45;100;;99054;48769;493078;8.88094;0.9089;0.9071;0.852;14.7974;4535.33;45.3533;0.0002;

CONTRACT-BAND-MULTIPLICATOR
contract-band-multiplicator; Read Length; LSH build time (s); Search time per Read (ns); Time LSH per Read (ns); Time Aligner per Read (ns); LSH memory usage (GB); Correct Intersection Found; Correct Interval Found; Correct Alignment FoundWrong Intervals per Read; Columns per Read; Extra alignment calculation factor; No Interval Found;
0;100;181;92049;48606;424364;8.88094;0.9092;0.8943;0.906;14.7968;3887.9;38.879;0.0002;
0.1;100;;92026;49127;415903;8.88094;0.9092;0.8942;0.881;14.7968;3886.71;38.8671;0.0002;
0.15;100;;103407;48834;534457;8.88094;0.9092;0.8941;0.905;14.7968;3885.92;38.8592;0.0002;
0.2;100;;103151;48806;531768;8.88094;0.9092;0.8941;0.899;14.7968;3885.57;38.8557;0.0002;
0.3;100;;92110;48702;421881;8.88094;0.9092;0.8938;0.837;14.7968;3883.97;38.8397;0.0002;
0.4;100;;95291;48657;456619;8.88094;0.9092;0.8938;0.878;14.7968;3883.11;38.8311;0.0002;
0.5;100;;99360;48571;495144;8.88094;0.9092;0.8927;0.909;14.7968;3881.53;38.8153;0.0002;

ReadLength = 100
HIT DISTRIBUTION
index; mean; deviation; min; q1; median; q3; max;
;32030.2;125743;0;23;44;375;1.61031e+06;
0;0.0306;1.61007;0;0;0;0;143;
1;0.0649;2.54569;0;0;0;0;200;
2;0.1083;3.67107;0;0;0;0;236;
3;0.1545;4.74205;0;0;0;0;298;
4;0.1955;5.48278;0;0;0;0;328;
5;0.2517;6.30466;0;0;0;0;331;
6;0.3021;7.03275;0;0;0;0;339;
7;0.4129;9.96927;0;0;0;0;557;
8;0.5279;12.8964;0;0;0;0;773;
9;0.6259;15.1211;0;0;0;0;810;
10;0.7212;16.5478;0;0;0;0;847;
11;0.8363;18.0905;0;0;0;0;936;
12;0.9903;20.415;0;0;0;0;1038;
13;1.1994;25.4749;0;0;0;0;1469;
14;1.4424;29.2243;0;0;0;0;1491;
15;1.7231;33.586;0;0;0;0;1658;
16;1.9636;35.1284;0;0;0;0;1662;
17;2.2613;38.5485;0;0;0;0;1762;
18;2.6786;43.1028;0;0;0;0;2017;
19;3.1914;48.4037;0;0;0;0;2208;
20;3.7434;53.9989;0;0;0;0;2419;
21;4.4355;60.917;0;0;0;0;2494;
22;5.1112;68.6757;0;0;0;0;2940;
23;5.8704;77.2286;0;0;0;0;3805;
24;6.706;87.0859;0;0;0;0;4667;
25;7.7692;96.9094;0;0;0;0;4703;
26;8.7531;104.792;0;0;0;0;4819;
27;9.7789;111.471;0;0;0;0;4970;
28;11.1947;123.146;0;0;0;0;5010;
29;12.8024;138.02;0;0;0;0;5316;
30;14.888;157.284;0;0;0;0;5624;
31;16.9355;178.675;0;0;0;0;6611;
32;19.2574;194.845;0;0;0;0;6628;
33;21.767;216.488;0;0;0;0;7038;
34;24.7446;241.03;0;0;0;0;8184;
35;28.3618;271.037;0;0;0;0;8385;
36;32.1468;301.09;0;0;0;0;9011;
37;35.9757;328.141;0;0;0;0;9059;
38;40.4387;359.829;0;0;0;0;9700;
39;45.9927;400.675;0;0;0;1;10627;
40;51.4693;439.859;0;0;0;1;12207;
41;57.9904;477.15;0;0;0;1;12406;
42;65.9579;530.355;0;0;0;1;13505;
43;73.773;583.296;0;0;0;1;15999;
44;82.3628;638.008;0;0;0;1;17901;
45;93.5263;713.298;0;0;0;1;20185;
46;106.272;791.295;0;0;0;1;20251;
47;119.754;865.847;0;0;0;1;21570;
48;135.1;962.769;0;0;0;1;21984;
49;151.262;1047.42;0;0;1;1;22981;
50;172.674;1197.43;0;0;1;1;28433;
51;194.249;1313.8;0;0;1;1;28722;
52;219.597;1454.88;0;0;1;2;29483;
53;251.026;1624.79;0;0;1;2;32186;
54;287.351;1801.64;0;0;1;2;36899;
55;325.314;1963.85;0;0;1;2;37985;
56;371.179;2188.97;0;1;1;2;46127;
57;428.398;2464.91;0;1;1;3;48676;
58;488.436;2730.51;0;1;1;3;49622;
59;557.909;3025.12;0;1;1;3;54177;
60;647.614;3423.94;0;1;1;4;56409;
61;754.816;3850.75;0;1;1;4;59936;
62;878.086;4327.69;0;1;1;5;62978;
63;1027.39;4908.82;0;1;1;6;63330;
64;1206.17;5553.97;0;1;2;7;65430;
65;1431.73;6375.42;0;1;2;9;68514;
66;1701.95;7261.62;0;1;2;12;70484;
67;2061.71;8566.93;0;1;2;16;88894;
68;2523.82;9943.96;0;2;3;23;89590;
69;3390.43;13252.9;0;2;3;34;142594;
70;4641.26;17564.7;0;2;4;56;153501;
71;7155.25;25492;0;3;7;116;168580;

