1
10
11
12
15
28
29
30
31
35
56
57
70
73
77
87
96
97
99
100
101
102
104
105
107
109
110
111
112
114
115
117
118
119
120
121
122
123
124
125
127
128
130
131
132
133
135
136
137
139
140
141
142
148
149
150
153
155
157
159
161
164
165
